//Maya ASCII 2016 scene
//Name: Ship.ma
//Last modified: Mon, Aug 17, 2015 01:09:25 PM
//Codeset: UTF-8
requires maya "2016";
currentUnit -l centimeter -a degree -t film;
fileInfo "application" "maya";
fileInfo "product" "Maya 2016";
fileInfo "version" "2016";
fileInfo "cutIdentifier" "201502261600-953408";
fileInfo "osv" "Mac OS X 10.9.1";
fileInfo "license" "student";
createNode transform -n "vehicle";
	rename -uid "08011E7A-2547-D8B3-10C9-ACBF9BB247B2";
createNode mesh -n "vehicleShape" -p "vehicle";
	rename -uid "79AA5C42-C543-DEE0-9340-0C9BB8BA97AB";
	setAttr -k off ".v";
	setAttr ".vir" yes;
	setAttr ".vif" yes;
	setAttr ".pv" -type "double2" 0.5 0.5 ;
	setAttr ".uvst[0].uvsn" -type "string" "map1";
	setAttr -s 11 ".uvst[0].uvsp[0:10]" -type "float2" 0.5 0.125 0.375 0.5
		 0.625 0.5 0.375 0.75 0.625 0.75 0.5 1 0.875 0 0.875 0.25 0.125 0 0.125 0.25 0.5 0.625;
	setAttr ".cuvs" -type "string" "map1";
	setAttr ".dcc" -type "string" "Ambient+Diffuse";
	setAttr ".covm[0]"  0 1 1;
	setAttr ".cdvm[0]"  0 1 1;
	setAttr -s 6 ".pt[0:5]" -type "float3"  0 0 0.36821911 0.043311708 
		0 0.36821911 0 -0.21457554 0.36821911 0 0.21457554 0.36821911 -0.043311708 0 0.36821911 
		0 0 0.36821911;
	setAttr -s 6 ".vt[0:5]"  0 0 1.31707823 -0.81674343 0 -1.10133219
		 0 0.71147531 -0.87697262 0 -0.71147531 -0.87697262 0.81674343 0 -1.10133219 0 0 -1.46598935;
	setAttr -s 12 ".ed[0:11]"  1 2 0 3 4 0 0 1 0 0 2 0 1 3 0 2 4 0 3 0 0
		 4 0 0 4 5 0 5 1 0 2 5 0 5 3 0;
	setAttr -s 8 -ch 24 ".fc[0:7]" -type "polyFaces" 
		f 3 3 -1 -3
		mu 0 3 0 2 1
		f 3 0 10 9
		mu 0 3 1 2 10
		f 3 1 7 -7
		mu 0 3 3 4 5
		f 3 -8 -6 -4
		mu 0 3 0 6 7
		f 3 6 2 4
		mu 0 3 8 0 9
		f 3 -10 11 -5
		mu 0 3 1 10 3
		f 3 -11 5 8
		mu 0 3 10 2 4
		f 3 -12 -9 -2
		mu 0 3 3 10 4;
	setAttr ".cd" -type "dataPolyComponent" Index_Data Edge 0 ;
	setAttr ".cvd" -type "dataPolyComponent" Index_Data Vertex 0 ;
	setAttr ".pd[0]" -type "dataPolyComponent" Index_Data UV 0 ;
	setAttr ".hfd" -type "dataPolyComponent" Index_Data Face 0 ;
createNode transform -n "directionSpeed";
	rename -uid "B0CAF594-124B-80F9-78C3-ED995E1ECC52";
createNode mesh -n "directionSpeedShape" -p "directionSpeed";
	rename -uid "95F9285B-8544-0506-E3F6-77830DF795AB";
	setAttr -k off ".v";
	setAttr ".vir" yes;
	setAttr ".vif" yes;
	setAttr ".pv" -type "double2" 0.5 0.5 ;
	setAttr ".uvst[0].uvsn" -type "string" "map1";
	setAttr -s 441 ".uvst[0].uvsp";
	setAttr ".uvst[0].uvsp[0:249]" -type "float2" 0.375 0 0.40625 0 0.40625 0.03125
		 0.375 0.03125 0.4375 0 0.4375 0.03125 0.4375 0.0625 0.40625 0.0625 0.375 0.0625 0.46875
		 0 0.46875 0.03125 0.5 0 0.5 0.03125 0.5 0.0625 0.46875 0.0625 0.46875 0.09375 0.4375
		 0.09375 0.5 0.09375 0.5 0.125 0.46875 0.125 0.4375 0.125 0.40625 0.09375 0.375 0.09375
		 0.40625 0.125 0.375 0.125 0.53125 0 0.53125 0.03125 0.5625 0 0.5625 0.03125 0.5625
		 0.0625 0.53125 0.0625 0.59375 0 0.59375 0.03125 0.625 0 0.625 0.03125 0.625 0.0625
		 0.59375 0.0625 0.59375 0.09375 0.5625 0.09375 0.625 0.09375 0.625 0.125 0.59375 0.125
		 0.5625 0.125 0.53125 0.09375 0.53125 0.125 0.53125 0.15625 0.5 0.15625 0.5625 0.15625
		 0.5625 0.1875 0.53125 0.1875 0.5 0.1875 0.59375 0.15625 0.625 0.15625 0.625 0.1875
		 0.59375 0.1875 0.59375 0.21875 0.5625 0.21875 0.625 0.21875 0.625 0.25 0.59375 0.25
		 0.5625 0.25 0.53125 0.21875 0.5 0.21875 0.53125 0.25 0.5 0.25 0.40625 0.15625 0.375
		 0.15625 0.4375 0.15625 0.4375 0.1875 0.40625 0.1875 0.375 0.1875 0.46875 0.15625
		 0.46875 0.1875 0.46875 0.21875 0.4375 0.21875 0.46875 0.25 0.4375 0.25 0.40625 0.21875
		 0.375 0.21875 0.40625 0.25 0.375 0.25 0.40625 0.28125 0.375 0.28125 0.4375 0.28125
		 0.4375 0.3125 0.40625 0.3125 0.375 0.3125 0.46875 0.28125 0.5 0.28125 0.5 0.3125
		 0.46875 0.3125 0.46875 0.34375 0.4375 0.34375 0.5 0.34375 0.5 0.375 0.46875 0.375
		 0.4375 0.375 0.40625 0.34375 0.375 0.34375 0.40625 0.375 0.375 0.375 0.53125 0.28125
		 0.5625 0.28125 0.5625 0.3125 0.53125 0.3125 0.59375 0.28125 0.625 0.28125 0.625 0.3125
		 0.59375 0.3125 0.59375 0.34375 0.5625 0.34375 0.625 0.34375 0.625 0.375 0.59375 0.375
		 0.5625 0.375 0.53125 0.34375 0.53125 0.375 0.53125 0.40625 0.5 0.40625 0.5625 0.40625
		 0.5625 0.4375 0.53125 0.4375 0.5 0.4375 0.59375 0.40625 0.625 0.40625 0.625 0.4375
		 0.59375 0.4375 0.59375 0.46875 0.5625 0.46875 0.625 0.46875 0.625 0.5 0.59375 0.5
		 0.5625 0.5 0.53125 0.46875 0.5 0.46875 0.53125 0.5 0.5 0.5 0.40625 0.40625 0.375
		 0.40625 0.4375 0.40625 0.4375 0.4375 0.40625 0.4375 0.375 0.4375 0.46875 0.40625
		 0.46875 0.4375 0.46875 0.46875 0.4375 0.46875 0.46875 0.5 0.4375 0.5 0.40625 0.46875
		 0.375 0.46875 0.40625 0.5 0.375 0.5 0.40625 0.53125 0.375 0.53125 0.4375 0.53125
		 0.4375 0.5625 0.40625 0.5625 0.375 0.5625 0.46875 0.53125 0.5 0.53125 0.5 0.5625
		 0.46875 0.5625 0.46875 0.59375 0.4375 0.59375 0.5 0.59375 0.5 0.625 0.46875 0.625
		 0.4375 0.625 0.40625 0.59375 0.375 0.59375 0.40625 0.625 0.375 0.625 0.53125 0.53125
		 0.5625 0.53125 0.5625 0.5625 0.53125 0.5625 0.59375 0.53125 0.625 0.53125 0.625 0.5625
		 0.59375 0.5625 0.59375 0.59375 0.5625 0.59375 0.625 0.59375 0.625 0.625 0.59375 0.625
		 0.5625 0.625 0.53125 0.59375 0.53125 0.625 0.53125 0.65625 0.5 0.65625 0.5625 0.65625
		 0.5625 0.6875 0.53125 0.6875 0.5 0.6875 0.59375 0.65625 0.625 0.65625 0.625 0.6875
		 0.59375 0.6875 0.59375 0.71875 0.5625 0.71875 0.625 0.71875 0.625 0.75 0.59375 0.75
		 0.5625 0.75 0.53125 0.71875 0.5 0.71875 0.53125 0.75 0.5 0.75 0.40625 0.65625 0.375
		 0.65625 0.4375 0.65625 0.4375 0.6875 0.40625 0.6875 0.375 0.6875 0.46875 0.65625
		 0.46875 0.6875 0.46875 0.71875 0.4375 0.71875 0.46875 0.75 0.4375 0.75 0.40625 0.71875
		 0.375 0.71875 0.40625 0.75 0.375 0.75 0.40625 0.78125 0.375 0.78125 0.4375 0.78125
		 0.4375 0.8125 0.40625 0.8125 0.375 0.8125 0.46875 0.78125 0.5 0.78125 0.5 0.8125
		 0.46875 0.8125 0.46875 0.84375 0.4375 0.84375 0.5 0.84375 0.5 0.875 0.46875 0.875
		 0.4375 0.875 0.40625 0.84375 0.375 0.84375 0.40625 0.875 0.375 0.875 0.53125 0.78125
		 0.5625 0.78125 0.5625 0.8125 0.53125 0.8125 0.59375 0.78125;
	setAttr ".uvst[0].uvsp[250:440]" 0.625 0.78125 0.625 0.8125 0.59375 0.8125
		 0.59375 0.84375 0.5625 0.84375 0.625 0.84375 0.625 0.875 0.59375 0.875 0.5625 0.875
		 0.53125 0.84375 0.53125 0.875 0.53125 0.90625 0.5 0.90625 0.5625 0.90625 0.5625 0.9375
		 0.53125 0.9375 0.5 0.9375 0.59375 0.90625 0.625 0.90625 0.625 0.9375 0.59375 0.9375
		 0.59375 0.96875 0.5625 0.96875 0.625 0.96875 0.625 1 0.59375 1 0.5625 1 0.53125 0.96875
		 0.5 0.96875 0.53125 1 0.5 1 0.40625 0.90625 0.375 0.90625 0.4375 0.90625 0.4375 0.9375
		 0.40625 0.9375 0.375 0.9375 0.46875 0.90625 0.46875 0.9375 0.46875 0.96875 0.4375
		 0.96875 0.46875 1 0.4375 1 0.40625 0.96875 0.375 0.96875 0.40625 1 0.375 1 0.65625
		 0 0.65625 0.03125 0.6875 0 0.6875 0.03125 0.6875 0.0625 0.65625 0.0625 0.71875 0
		 0.71875 0.03125 0.75 0 0.75 0.03125 0.75 0.0625 0.71875 0.0625 0.71875 0.09375 0.6875
		 0.09375 0.75 0.09375 0.75 0.125 0.71875 0.125 0.6875 0.125 0.65625 0.09375 0.65625
		 0.125 0.78125 0 0.78125 0.03125 0.8125 0 0.8125 0.03125 0.8125 0.0625 0.78125 0.0625
		 0.84375 0 0.84375 0.03125 0.875 0 0.875 0.03125 0.875 0.0625 0.84375 0.0625 0.84375
		 0.09375 0.8125 0.09375 0.875 0.09375 0.875 0.125 0.84375 0.125 0.8125 0.125 0.78125
		 0.09375 0.78125 0.125 0.78125 0.15625 0.75 0.15625 0.8125 0.15625 0.8125 0.1875 0.78125
		 0.1875 0.75 0.1875 0.84375 0.15625 0.875 0.15625 0.875 0.1875 0.84375 0.1875 0.84375
		 0.21875 0.8125 0.21875 0.875 0.21875 0.875 0.25 0.84375 0.25 0.8125 0.25 0.78125
		 0.21875 0.75 0.21875 0.78125 0.25 0.75 0.25 0.65625 0.15625 0.6875 0.15625 0.6875
		 0.1875 0.65625 0.1875 0.71875 0.15625 0.71875 0.1875 0.71875 0.21875 0.6875 0.21875
		 0.71875 0.25 0.6875 0.25 0.65625 0.21875 0.65625 0.25 0.125 0 0.15625 0 0.15625 0.03125
		 0.125 0.03125 0.1875 0 0.1875 0.03125 0.1875 0.0625 0.15625 0.0625 0.125 0.0625 0.21875
		 0 0.21875 0.03125 0.25 0 0.25 0.03125 0.25 0.0625 0.21875 0.0625 0.21875 0.09375
		 0.1875 0.09375 0.25 0.09375 0.25 0.125 0.21875 0.125 0.1875 0.125 0.15625 0.09375
		 0.125 0.09375 0.15625 0.125 0.125 0.125 0.28125 0 0.28125 0.03125 0.3125 0 0.3125
		 0.03125 0.3125 0.0625 0.28125 0.0625 0.34375 0 0.34375 0.03125 0.34375 0.0625 0.34375
		 0.09375 0.3125 0.09375 0.34375 0.125 0.3125 0.125 0.28125 0.09375 0.28125 0.125 0.28125
		 0.15625 0.25 0.15625 0.3125 0.15625 0.3125 0.1875 0.28125 0.1875 0.25 0.1875 0.34375
		 0.15625 0.34375 0.1875 0.34375 0.21875 0.3125 0.21875 0.34375 0.25 0.3125 0.25 0.28125
		 0.21875 0.25 0.21875 0.28125 0.25 0.25 0.25 0.15625 0.15625 0.125 0.15625 0.1875
		 0.15625 0.1875 0.1875 0.15625 0.1875 0.125 0.1875 0.21875 0.15625 0.21875 0.1875
		 0.21875 0.21875 0.1875 0.21875 0.21875 0.25 0.1875 0.25 0.15625 0.21875 0.125 0.21875
		 0.15625 0.25 0.125 0.25;
	setAttr ".cuvs" -type "string" "map1";
	setAttr ".dcc" -type "string" "Ambient+Diffuse";
	setAttr ".covm[0]"  0 1 1;
	setAttr ".cdvm[0]"  0 1 1;
	setAttr -s 386 ".pt";
	setAttr ".pt[0:165]" -type "float3"  -0.83694959 -0.83694959 0.83694959 
		0.83694959 -0.83694959 0.83694959 -0.83694959 0.83694959 0.83694959 0.83694959 0.83694959 
		0.83694959 -0.83694959 0.83694959 -0.83694959 0.83694959 0.83694959 -0.83694959 -0.83694959 
		-0.83694959 -0.83694959 0.83694959 -0.83694959 -0.83694959 1.0311078 3.1082865e-09 
		1.0311078 -3.1082865e-09 1.0311078 1.0311078 -1.0311078 1.0311079 0 1.0311078 1.0311078 
		-3.1082865e-09 -3.1082865e-09 1.0311078 -1.0311078 -1.0311078 0 -1.0311079 1.0311078 
		-3.1082865e-09 -1.0311078 -3.1082865e-09 -1.0311078 -1.0311078 -1.0311078 -1.0311079 
		0 1.0311078 -1.0311078 3.1082865e-09 3.1082865e-09 -1.0311078 1.0311078 -1.0311078 
		0 1.0311079 0 1.5541433e-09 1.4170604 0 1.4170604 -1.5541433e-09 0 -1.5541433e-09 
		-1.4170604 0 -1.4170604 1.5541433e-09 1.4170604 1.5541433e-09 0 -1.4170604 1.5541433e-09 
		0 0 -0.5631755 1.3202326 -0.5631755 0 1.3202326 0.49658674 -0.96709925 0.96709925 
		0.96709925 -0.49658668 0.96709925 0.5631755 0 1.3202326 1.5541433e-09 0.5631755 1.3202326 
		0.96709925 0.49658674 0.96709925 0.49658668 0.96709925 0.96709925 -0.96709925 0.49658668 
		0.96709925 -0.49658674 0.96709925 0.96709925 -0.96709925 0.96709925 0.49658674 0 
		1.3202326 0.5631755 -0.5631755 1.3202326 0 0.96709925 0.96709925 0.49658668 0.5631755 
		1.3202326 0 1.5541433e-09 1.3202326 -0.5631755 0.96709925 0.96709925 -0.49658674 
		0.49658668 0.96709925 -0.96709925 -0.96709925 0.96709925 -0.49658668 -0.49658674 
		0.96709925 -0.96709925 -0.96709925 0.49658674 -0.96709925 0 0.5631755 -1.3202326 
		-0.5631755 0 -1.3202326 0.96709925 0.49658668 -0.96709925 0.5631755 0 -1.3202326 
		1.5541433e-09 -0.5631755 -1.3202326 0.96709925 -0.49658674 -0.96709925 0.49658668 
		-0.96709925 -0.96709925 -0.96709925 -0.49658668 -0.96709925 -0.49658674 -0.96709925 
		-0.96709925 -0.96709925 -0.96709925 -0.49658674 0 -1.3202326 -0.5631755 -0.5631755 
		-1.3202326 0 0.96709925 -0.96709925 -0.49658668 0.5631755 -1.3202326 0 1.5541433e-09 
		-1.3202326 0.5631755 0.96709925 -0.96709925 0.49658674 -0.96709925 -0.96709925 0.49658668 
		1.3202326 -0.5631755 0 1.3202326 0 0.5631755 1.3202326 0 -0.5631755 1.3202326 0.5631755 
		-1.5541433e-09 -1.3202326 -0.5631755 0 -1.3202326 0 -0.5631755 -1.3202326 0 0.5631755 
		-1.3202326 0.5631755 1.5541433e-09 -0.49658668 -0.96709925 0.96709925 -0.96709925 
		-0.49658674 0.96709925 -0.53225011 -0.53225011 1.2305725 0.53225011 -0.53225017 1.2305723 
		0.53225011 0.53225017 1.2305722 -0.53225017 0.53225017 1.2305723 -0.53225011 1.2305725 
		0.53225011 0.53225011 1.2305723 0.53225017 0.53225011 1.2305722 -0.53225017 -0.53225017 
		1.2305723 -0.53225017 -0.53225011 0.53225011 -1.2305725 0.53225011 0.53225017 -1.2305723 
		0.53225011 -0.53225017 -1.2305722 -0.53225017 -0.53225017 -1.2305723 -0.53225011 
		-1.2305725 -0.53225011 0.53225011 -1.2305723 -0.53225017 0.53225011 -1.2305722 0.53225017 
		-0.53225017 -1.2305723 0.53225017 1.2305725 -0.53225011 0.53225011 1.2305723 -0.53225017 
		-0.53225011 1.2305722 0.53225017 -0.53225011 1.2305723 0.53225017 0.53225017 -1.2305725 
		-0.53225011 -0.53225011 -1.2305723 -0.53225017 0.53225011 -1.2305722 0.53225017 0.53225011 
		-1.2305723 0.53225017 -0.53225017 -0.50886941 -0.76734793 1.1209792 -0.76734793 -0.50886941 
		1.1209792 -0.25712055 -1.0130912 1.0130912 0 -0.8149997 1.1995941 -0.27233052 -0.55326188 
		1.2974628 -0.55326188 -0.27233052 1.2974628 0 -0.28754044 1.3927968 -0.28754044 0 
		1.3927968 -1.0130912 -0.25712055 1.0130912 -0.8149997 0 1.1995941 0.25712055 -1.0130912 
		1.0130912 0.50886941 -0.76734793 1.1209792 0.27233052 -0.55326188 1.2974628 0.70074409 
		-0.90118945 0.90118945 0.90118945 -0.70074409 0.90118945 0.76734799 -0.50886941 1.1209792 
		0.55326188 -0.27233052 1.2974628 1.0130912 -0.25712055 1.0130912 0.81499982 0 1.1995941 
		0.28754044 0 1.3927968 0 0.28754044 1.3927968 0.55326188 0.27233052 1.2974628 0.27233052 
		0.55326188 1.2974628 1.0130912 0.25712055 1.0130912 0.76734799 0.50886941 1.1209792 
		0.50886941 0.76734799 1.1209792 0.90118945 0.70074409 0.90118945 0.70074409 0.90118945 
		0.90118945 0 0.81499982 1.1995941 0.25712055 1.0130912 1.0130912 -1.0130912 0.25712055 
		1.0130912 -0.55326188 0.27233052 1.2974628 -0.76734793 0.50886941 1.1209792 -0.27233052 
		0.55326188 1.2974628 -0.50886941 0.76734793 1.1209792 -0.25712055 1.0130912 1.0130912 
		-0.90118945 0.70074409 0.90118945 -0.70074409 0.90118945 0.90118945 -0.90118945 0.90118945 
		0.70074409 -0.50886941 1.1209792 0.76734793 -0.76734793 1.1209792 0.50886941 0 1.1995941 
		0.8149997 -0.27233052 1.2974628 0.55326188 -0.55326188 1.2974628 0.27233052 0 1.3927968 
		0.28754044 -0.28754044 1.3927968 0 -1.0130912 1.0130912 0.25712055 -0.8149997 1.1995941 
		0 0.50886941 1.1209792 0.76734793 0.27233052 1.2974628 0.55326188 0.90118945 0.90118945 
		0.70074409 0.76734799 1.1209792 0.50886941 0.55326188 1.2974628 0.27233052 1.0130912 
		1.0130912 0.25712055 0.81499982 1.1995941 0 0.28754044 1.3927968 0 0 1.3927968 -0.28754044 
		0.55326188 1.2974628 -0.27233052 0.27233052 1.2974628 -0.55326188 1.0130912 1.0130912 
		-0.25712055 0.76734799 1.1209792 -0.50886941 0.50886941 1.1209792 -0.76734799 0.90118945 
		0.90118945 -0.70074409 0.70074409 0.90118945 -0.90118945 0 1.1995941 -0.81499982 
		0.25712055 1.0130912 -1.0130912 -1.0130912 1.0130912 -0.25712055 -0.55326188 1.2974628 
		-0.27233052;
	setAttr ".pt[166:331]" -0.76734793 1.1209792 -0.50886941 -0.27233052 1.2974628 
		-0.55326188 -0.50886941 1.1209792 -0.76734793 -0.25712055 1.0130912 -1.0130912 -0.90118945 
		0.90118945 -0.70074409 -0.70074409 0.90118945 -0.90118945 -0.90118945 0.70074409 
		-0.90118945 -0.50886941 0.76734793 -1.1209792 -0.76734793 0.50886941 -1.1209792 0 
		0.8149997 -1.1995941 -0.27233052 0.55326188 -1.2974628 -0.55326188 0.27233052 -1.2974628 
		0 0.28754044 -1.3927968 -0.28754044 0 -1.3927968 -1.0130912 0.25712055 -1.0130912 
		-0.8149997 0 -1.1995941 0.50886941 0.76734793 -1.1209792 0.27233052 0.55326188 -1.2974628 
		0.90118945 0.70074409 -0.90118945 0.76734799 0.50886941 -1.1209792 0.55326188 0.27233052 
		-1.2974628 1.0130912 0.25712055 -1.0130912 0.81499982 0 -1.1995941 0.28754044 0 -1.3927968 
		0 -0.28754044 -1.3927968 0.55326188 -0.27233052 -1.2974628 0.27233052 -0.55326188 
		-1.2974628 1.0130912 -0.25712055 -1.0130912 0.76734799 -0.50886941 -1.1209792 0.50886941 
		-0.76734799 -1.1209792 0.90118945 -0.70074409 -0.90118945 0.70074409 -0.90118945 
		-0.90118945 0 -0.81499982 -1.1995941 0.25712055 -1.0130912 -1.0130912 -1.0130912 
		-0.25712055 -1.0130912 -0.55326188 -0.27233052 -1.2974628 -0.76734793 -0.50886941 
		-1.1209792 -0.27233052 -0.55326188 -1.2974628 -0.50886941 -0.76734793 -1.1209792 
		-0.25712055 -1.0130912 -1.0130912 -0.90118945 -0.70074409 -0.90118945 -0.70074409 
		-0.90118945 -0.90118945 -0.90118945 -0.90118945 -0.70074409 -0.50886941 -1.1209792 
		-0.76734793 -0.76734793 -1.1209792 -0.50886941 0 -1.1995941 -0.8149997 -0.27233052 
		-1.2974628 -0.55326188 -0.55326188 -1.2974628 -0.27233052 0 -1.3927968 -0.28754044 
		-0.28754044 -1.3927968 0 -1.0130912 -1.0130912 -0.25712055 -0.8149997 -1.1995941 
		0 0.50886941 -1.1209792 -0.76734793 0.27233052 -1.2974628 -0.55326188 0.90118945 
		-0.90118945 -0.70074409 0.76734799 -1.1209792 -0.50886941 0.55326188 -1.2974628 -0.27233052 
		1.0130912 -1.0130912 -0.25712055 0.81499982 -1.1995941 0 0.28754044 -1.3927968 0 
		0 -1.3927968 0.28754044 0.55326188 -1.2974628 0.27233052 0.27233052 -1.2974628 0.55326188 
		1.0130912 -1.0130912 0.25712055 0.76734799 -1.1209792 0.50886941 0.50886941 -1.1209792 
		0.76734799 0.90118945 -0.90118945 0.70074409 0 -1.1995941 0.81499982 -1.0130912 -1.0130912 
		0.25712055 -0.55326188 -1.2974628 0.27233052 -0.76734793 -1.1209792 0.50886941 -0.27233052 
		-1.2974628 0.55326188 -0.50886941 -1.1209792 0.76734793 -0.90118945 -0.90118945 0.70074409 
		1.1209792 -0.76734793 0.50886941 1.1209792 -0.50886941 0.76734799 1.1995941 -0.8149997 
		0 1.2974628 -0.55326188 0.27233052 1.2974628 -0.27233052 0.55326188 1.3927968 -0.28754044 
		0 1.3927968 0 0.28754044 1.1995941 0 0.81499982 1.1209792 -0.76734793 -0.50886941 
		1.2974628 -0.55326188 -0.27233052 1.1209792 -0.50886941 -0.76734799 1.2974628 -0.27233052 
		-0.55326188 1.1995941 0 -0.81499982 1.3927968 0 -0.28754044 1.3927968 0.28754044 
		0 1.2974628 0.27233052 -0.55326188 1.2974628 0.55326188 -0.27233052 1.1209792 0.50886941 
		-0.76734799 1.1209792 0.76734799 -0.50886941 1.1995941 0.81499982 0 1.2974628 0.27233052 
		0.55326188 1.1209792 0.50886941 0.76734793 1.2974628 0.55326188 0.27233052 1.1209792 
		0.76734793 0.50886941 -1.1209792 -0.76734793 -0.50886941 -1.1209792 -0.50886941 -0.76734799 
		-1.1995941 -0.8149997 0 -1.2974628 -0.55326188 -0.27233052 -1.2974628 -0.27233052 
		-0.55326188 -1.3927968 -0.28754044 0 -1.3927968 0 -0.28754044 -1.1995941 0 -0.81499982 
		-1.1209792 -0.76734793 0.50886941 -1.2974628 -0.55326188 0.27233052 -1.1209792 -0.50886941 
		0.76734799 -1.2974628 -0.27233052 0.55326188 -1.1995941 0 0.81499982 -1.3927968 0 
		0.28754044 -1.3927968 0.28754044 0 -1.2974628 0.27233052 0.55326188 -1.2974628 0.55326188 
		0.27233052 -1.1209792 0.50886941 0.76734799 -1.1209792 0.76734799 0.50886941 -1.1995941 
		0.81499982 0 -1.2974628 0.27233052 -0.55326188 -1.1209792 0.50886941 -0.76734793 
		-1.2974628 0.55326188 -0.27233052 -1.1209792 0.76734793 -0.50886941 -0.70074409 -0.90118945 
		0.90118945 -0.90118945 -0.70074409 0.90118945 -0.72452468 -0.72452474 1.0308965 -0.26219055 
		-0.80069512 1.178771 -0.28247046 -0.28247046 1.3688954 -0.80069512 -0.26219055 1.178771 
		0.26219055 -0.80069512 1.178771 0.72452468 -0.72452468 1.0308965 0.80069518 -0.26219055 
		1.178771 0.28247046 -0.28247046 1.3688954 0.28247046 0.28247046 1.3688954 0.80069512 
		0.26219055 1.178771 0.72452474 0.72452468 1.0308965 0.26219055 0.80069518 1.178771 
		-0.80069512 0.26219055 1.178771 -0.28247046 0.28247046 1.3688954 -0.26219055 0.80069512 
		1.178771 -0.72452468 0.72452468 1.0308965 -0.72452468 1.0308965 0.72452474 -0.26219055 
		1.178771 0.80069512 -0.28247046 1.3688954 0.28247046 -0.80069512 1.178771 0.26219055 
		0.26219055 1.178771 0.80069512 0.72452468 1.0308965 0.72452468 0.80069518 1.178771 
		0.26219055 0.28247046 1.3688954 0.28247046 0.28247046 1.3688954 -0.28247046 0.80069512 
		1.178771 -0.26219055 0.72452474 1.0308965 -0.72452468 0.26219055 1.178771 -0.80069518 
		-0.80069512 1.178771 -0.26219055 -0.28247046 1.3688954 -0.28247046 -0.26219055 1.178771 
		-0.80069512 -0.72452468 1.0308965 -0.72452468 -0.72452468 0.72452474 -1.0308965 -0.26219055 
		0.80069512 -1.178771 -0.28247046 0.28247046 -1.3688954 -0.80069512 0.26219055 -1.178771 
		0.26219055 0.80069512 -1.178771 0.72452468 0.72452468 -1.0308965 0.80069518 0.26219055 
		-1.178771 0.28247046 0.28247046 -1.3688954 0.28247046 -0.28247046 -1.3688954 0.80069512 
		-0.26219055 -1.178771;
	setAttr ".pt[332:385]" 0.72452474 -0.72452468 -1.0308965 0.26219055 -0.80069518 
		-1.178771 -0.80069512 -0.26219055 -1.178771 -0.28247046 -0.28247046 -1.3688954 -0.26219055 
		-0.80069512 -1.178771 -0.72452468 -0.72452468 -1.0308965 -0.72452468 -1.0308965 -0.72452474 
		-0.26219055 -1.178771 -0.80069512 -0.28247046 -1.3688954 -0.28247046 -0.80069512 
		-1.178771 -0.26219055 0.26219055 -1.178771 -0.80069512 0.72452468 -1.0308965 -0.72452468 
		0.80069518 -1.178771 -0.26219055 0.28247046 -1.3688954 -0.28247046 0.28247046 -1.3688954 
		0.28247046 0.80069512 -1.178771 0.26219055 0.72452474 -1.0308965 0.72452468 0.26219055 
		-1.178771 0.80069518 -0.80069512 -1.178771 0.26219055 -0.28247046 -1.3688954 0.28247046 
		-0.26219055 -1.178771 0.80069512 -0.72452468 -1.0308965 0.72452468 1.0308965 -0.72452474 
		0.72452468 1.178771 -0.80069512 0.26219055 1.3688954 -0.28247046 0.28247046 1.178771 
		-0.26219055 0.80069518 1.178771 -0.80069512 -0.26219055 1.0308965 -0.72452468 -0.72452468 
		1.178771 -0.26219055 -0.80069518 1.3688954 -0.28247046 -0.28247046 1.3688954 0.28247046 
		-0.28247046 1.178771 0.26219055 -0.80069512 1.0308965 0.72452468 -0.72452474 1.178771 
		0.80069518 -0.26219055 1.178771 0.26219055 0.80069512 1.3688954 0.28247046 0.28247046 
		1.178771 0.80069512 0.26219055 1.0308965 0.72452468 0.72452468 -1.0308965 -0.72452474 
		-0.72452468 -1.178771 -0.80069512 -0.26219055 -1.3688954 -0.28247046 -0.28247046 
		-1.178771 -0.26219055 -0.80069518 -1.178771 -0.80069512 0.26219055 -1.0308965 -0.72452468 
		0.72452468 -1.178771 -0.26219055 0.80069518 -1.3688954 -0.28247046 0.28247046 -1.3688954 
		0.28247046 0.28247046 -1.178771 0.26219055 0.80069512 -1.0308965 0.72452468 0.72452474 
		-1.178771 0.80069518 0.26219055 -1.178771 0.26219055 -0.80069512 -1.3688954 0.28247046 
		-0.28247046 -1.178771 0.80069512 -0.26219055 -1.0308965 0.72452468 -0.72452468;
	setAttr -s 386 ".vt";
	setAttr ".vt[0:165]"  -0.25077161 -0.25077161 0.25077161 0.25077161 -0.25077161 0.25077161
		 -0.25077161 0.25077161 0.25077161 0.25077161 0.25077161 0.25077161 -0.25077161 0.25077161 -0.25077161
		 0.25077161 0.25077161 -0.25077161 -0.25077161 -0.25077161 -0.25077161 0.25077161 -0.25077161 -0.25077161
		 0.3089464 9.3132257e-10 0.3089464 -9.3132257e-10 0.3089464 0.3089464 -0.3089464 0.30894643 0
		 0.3089464 0.3089464 -9.3132257e-10 -9.3132257e-10 0.3089464 -0.3089464 -0.3089464 0 -0.30894643
		 0.3089464 -9.3132257e-10 -0.3089464 -9.3132257e-10 -0.3089464 -0.3089464 -0.3089464 -0.30894643 0
		 0.3089464 -0.3089464 9.3132257e-10 9.3132257e-10 -0.3089464 0.3089464 -0.3089464 0 0.30894643
		 0 4.6566129e-10 0.42458773 0 0.42458773 -4.6566129e-10 0 -4.6566129e-10 -0.42458773
		 0 -0.42458773 4.6566129e-10 0.42458773 4.6566129e-10 0 -0.42458773 4.6566129e-10 0
		 0 -0.16874187 0.39557564 -0.16874185 0 0.39557564 0.14879015 -0.2897678 0.2897678
		 0.2897678 -0.14879014 0.2897678 0.16874187 0 0.39557564 4.6566129e-10 0.16874187 0.39557564
		 0.2897678 0.14879015 0.2897678 0.14879014 0.2897678 0.2897678 -0.2897678 0.14879014 0.2897678
		 -0.14879015 0.2897678 0.2897678 -0.2897678 0.2897678 0.14879015 0 0.39557564 0.16874187
		 -0.16874185 0.39557564 0 0.2897678 0.2897678 0.14879014 0.16874187 0.39557564 0 4.6566129e-10 0.39557564 -0.16874187
		 0.2897678 0.2897678 -0.14879015 0.14879014 0.2897678 -0.2897678 -0.2897678 0.2897678 -0.14879014
		 -0.14879015 0.2897678 -0.2897678 -0.2897678 0.14879015 -0.2897678 0 0.16874187 -0.39557564
		 -0.16874185 0 -0.39557564 0.2897678 0.14879014 -0.2897678 0.16874187 0 -0.39557564
		 4.6566129e-10 -0.16874187 -0.39557564 0.2897678 -0.14879015 -0.2897678 0.14879014 -0.2897678 -0.2897678
		 -0.2897678 -0.14879014 -0.2897678 -0.14879015 -0.2897678 -0.2897678 -0.2897678 -0.2897678 -0.14879015
		 0 -0.39557564 -0.16874187 -0.16874185 -0.39557564 0 0.2897678 -0.2897678 -0.14879014
		 0.16874187 -0.39557564 0 4.6566129e-10 -0.39557564 0.16874187 0.2897678 -0.2897678 0.14879015
		 -0.2897678 -0.2897678 0.14879014 0.39557564 -0.16874187 0 0.39557564 0 0.16874187
		 0.39557564 0 -0.16874187 0.39557564 0.16874187 -4.6566129e-10 -0.39557564 -0.16874187 0
		 -0.39557564 0 -0.16874187 -0.39557564 0 0.16874187 -0.39557564 0.16874187 4.6566129e-10
		 -0.14879014 -0.2897678 0.2897678 -0.2897678 -0.14879015 0.2897678 -0.15947582 -0.15947582 0.36871114
		 0.15947582 -0.15947583 0.36871111 0.15947582 0.15947583 0.36871108 -0.15947583 0.15947583 0.36871111
		 -0.15947582 0.36871114 0.15947582 0.15947582 0.36871111 0.15947583 0.15947582 0.36871108 -0.15947583
		 -0.15947583 0.36871111 -0.15947583 -0.15947582 0.15947582 -0.36871114 0.15947582 0.15947583 -0.36871111
		 0.15947582 -0.15947583 -0.36871108 -0.15947583 -0.15947583 -0.36871111 -0.15947582 -0.36871114 -0.15947582
		 0.15947582 -0.36871111 -0.15947583 0.15947582 -0.36871108 0.15947583 -0.15947583 -0.36871111 0.15947583
		 0.36871114 -0.15947582 0.15947582 0.36871111 -0.15947583 -0.15947582 0.36871108 0.15947583 -0.15947582
		 0.36871111 0.15947583 0.15947583 -0.36871114 -0.15947582 -0.15947582 -0.36871111 -0.15947583 0.15947582
		 -0.36871108 0.15947583 0.15947582 -0.36871111 0.15947583 -0.15947583 -0.15247035 -0.22991717 0.3358742
		 -0.22991717 -0.15247035 0.3358742 -0.077039927 -0.30354816 0.30354816 0 -0.24419487 0.35942924
		 -0.081597224 -0.16577148 0.38875324 -0.16577148 -0.081597224 0.38875324 0 -0.086154506 0.41731772
		 -0.086154506 0 0.41731772 -0.30354816 -0.077039927 0.30354816 -0.24419487 0 0.35942924
		 0.077039927 -0.30354816 0.30354816 0.15247035 -0.22991717 0.3358742 0.081597224 -0.16577148 0.38875324
		 0.20996095 -0.27001953 0.27001953 0.27001953 -0.20996095 0.27001953 0.22991718 -0.15247035 0.3358742
		 0.16577148 -0.081597224 0.38875324 0.30354819 -0.077039927 0.30354816 0.2441949 0 0.35942924
		 0.086154506 0 0.41731772 0 0.086154506 0.41731772 0.16577148 0.081597224 0.38875324
		 0.081597224 0.16577148 0.38875324 0.30354816 0.077039927 0.30354816 0.22991718 0.15247035 0.3358742
		 0.15247035 0.22991718 0.3358742 0.27001953 0.20996094 0.27001953 0.20996094 0.27001953 0.27001953
		 0 0.2441949 0.35942924 0.077039927 0.30354819 0.30354816 -0.30354816 0.077039927 0.30354816
		 -0.16577148 0.081597224 0.38875324 -0.22991717 0.15247035 0.3358742 -0.081597224 0.16577148 0.38875324
		 -0.15247035 0.22991717 0.3358742 -0.077039927 0.30354816 0.30354816 -0.27001953 0.20996094 0.27001953
		 -0.20996094 0.27001953 0.27001953 -0.27001953 0.27001953 0.20996095 -0.15247035 0.3358742 0.22991717
		 -0.22991717 0.3358742 0.15247035 0 0.35942924 0.24419487 -0.081597224 0.38875324 0.16577148
		 -0.16577148 0.38875324 0.081597224 0 0.41731772 0.086154506 -0.086154506 0.41731772 0
		 -0.30354816 0.30354816 0.077039927 -0.24419487 0.35942924 0 0.15247035 0.3358742 0.22991717
		 0.081597224 0.38875324 0.16577148 0.27001953 0.27001953 0.20996094 0.22991718 0.3358742 0.15247035
		 0.16577148 0.38875324 0.081597224 0.30354819 0.30354816 0.077039927 0.2441949 0.35942924 0
		 0.086154506 0.41731772 0 0 0.41731772 -0.086154506 0.16577148 0.38875324 -0.081597224
		 0.081597224 0.38875324 -0.16577148 0.30354816 0.30354816 -0.077039927 0.22991718 0.3358742 -0.15247035
		 0.15247035 0.3358742 -0.22991718 0.27001953 0.27001953 -0.20996095 0.20996094 0.27001953 -0.27001953
		 0 0.35942924 -0.2441949 0.077039927 0.30354816 -0.30354819 -0.30354816 0.30354816 -0.077039927
		 -0.16577148 0.38875324 -0.081597224;
	setAttr ".vt[166:331]" -0.22991717 0.3358742 -0.15247035 -0.081597224 0.38875324 -0.16577148
		 -0.15247035 0.3358742 -0.22991717 -0.077039927 0.30354816 -0.30354816 -0.27001953 0.27001953 -0.20996094
		 -0.20996094 0.27001953 -0.27001953 -0.27001953 0.20996094 -0.27001953 -0.15247035 0.22991717 -0.3358742
		 -0.22991717 0.15247035 -0.3358742 0 0.24419487 -0.35942924 -0.081597224 0.16577148 -0.38875324
		 -0.16577148 0.081597224 -0.38875324 0 0.086154506 -0.41731772 -0.086154506 0 -0.41731772
		 -0.30354816 0.077039927 -0.30354816 -0.24419487 0 -0.35942924 0.15247035 0.22991717 -0.3358742
		 0.081597224 0.16577148 -0.38875324 0.27001953 0.20996094 -0.27001953 0.22991718 0.15247035 -0.3358742
		 0.16577148 0.081597224 -0.38875324 0.30354819 0.077039927 -0.30354816 0.2441949 0 -0.35942924
		 0.086154506 0 -0.41731772 0 -0.086154506 -0.41731772 0.16577148 -0.081597224 -0.38875324
		 0.081597224 -0.16577148 -0.38875324 0.30354816 -0.077039927 -0.30354816 0.22991718 -0.15247035 -0.3358742
		 0.15247035 -0.22991718 -0.3358742 0.27001953 -0.20996094 -0.27001953 0.20996094 -0.27001953 -0.27001953
		 0 -0.2441949 -0.35942924 0.077039927 -0.30354819 -0.30354816 -0.30354816 -0.077039927 -0.30354816
		 -0.16577148 -0.081597224 -0.38875324 -0.22991717 -0.15247035 -0.3358742 -0.081597224 -0.16577148 -0.38875324
		 -0.15247035 -0.22991717 -0.3358742 -0.077039927 -0.30354816 -0.30354816 -0.27001953 -0.20996095 -0.27001953
		 -0.20996094 -0.27001953 -0.27001953 -0.27001953 -0.27001953 -0.20996094 -0.15247035 -0.3358742 -0.22991717
		 -0.22991717 -0.3358742 -0.15247035 0 -0.35942924 -0.24419487 -0.081597224 -0.38875324 -0.16577148
		 -0.16577148 -0.38875324 -0.081597224 0 -0.41731772 -0.086154506 -0.086154506 -0.41731772 0
		 -0.30354816 -0.30354816 -0.077039927 -0.24419487 -0.35942924 0 0.15247035 -0.3358742 -0.22991717
		 0.081597224 -0.38875324 -0.16577148 0.27001953 -0.27001953 -0.20996094 0.22991718 -0.3358742 -0.15247035
		 0.16577148 -0.38875324 -0.081597224 0.30354819 -0.30354816 -0.077039927 0.2441949 -0.35942924 0
		 0.086154506 -0.41731772 0 0 -0.41731772 0.086154506 0.16577148 -0.38875324 0.081597224
		 0.081597224 -0.38875324 0.16577148 0.30354816 -0.30354816 0.077039927 0.22991718 -0.3358742 0.15247035
		 0.15247035 -0.3358742 0.22991718 0.27001953 -0.27001953 0.20996094 0 -0.35942924 0.2441949
		 -0.30354816 -0.30354816 0.077039927 -0.16577148 -0.38875324 0.081597224 -0.22991717 -0.3358742 0.15247035
		 -0.081597224 -0.38875324 0.16577148 -0.15247035 -0.3358742 0.22991717 -0.27001953 -0.27001953 0.20996094
		 0.3358742 -0.22991717 0.15247035 0.3358742 -0.15247035 0.22991718 0.35942924 -0.24419487 0
		 0.38875324 -0.16577148 0.081597224 0.38875324 -0.081597224 0.16577148 0.41731772 -0.086154506 0
		 0.41731772 0 0.086154506 0.35942924 0 0.2441949 0.3358742 -0.22991717 -0.15247035
		 0.38875324 -0.16577148 -0.081597224 0.3358742 -0.15247035 -0.22991718 0.38875324 -0.081597224 -0.16577148
		 0.35942924 0 -0.2441949 0.41731772 0 -0.086154506 0.41731772 0.086154506 0 0.38875324 0.081597224 -0.16577148
		 0.38875324 0.16577148 -0.081597224 0.3358742 0.15247035 -0.22991718 0.3358742 0.22991718 -0.15247035
		 0.35942924 0.2441949 0 0.38875324 0.081597224 0.16577148 0.3358742 0.15247035 0.22991717
		 0.38875324 0.16577148 0.081597224 0.3358742 0.22991717 0.15247035 -0.3358742 -0.22991717 -0.15247035
		 -0.3358742 -0.15247035 -0.22991718 -0.35942924 -0.24419487 0 -0.38875324 -0.16577148 -0.081597224
		 -0.38875324 -0.081597224 -0.16577148 -0.41731772 -0.086154506 0 -0.41731772 0 -0.086154506
		 -0.35942924 0 -0.2441949 -0.3358742 -0.22991717 0.15247035 -0.38875324 -0.16577148 0.081597224
		 -0.3358742 -0.15247035 0.22991718 -0.38875324 -0.081597224 0.16577148 -0.35942924 0 0.2441949
		 -0.41731772 0 0.086154506 -0.41731772 0.086154506 0 -0.38875324 0.081597224 0.16577148
		 -0.38875324 0.16577148 0.081597224 -0.3358742 0.15247035 0.22991718 -0.3358742 0.22991718 0.15247035
		 -0.35942924 0.2441949 0 -0.38875324 0.081597224 -0.16577148 -0.3358742 0.15247035 -0.22991717
		 -0.38875324 0.16577148 -0.081597224 -0.3358742 0.22991717 -0.15247035 -0.20996094 -0.27001953 0.27001953
		 -0.27001953 -0.20996094 0.27001953 -0.21708623 -0.21708624 0.3088831 -0.078559026 -0.23990884 0.35319009
		 -0.084635414 -0.084635414 0.41015625 -0.23990884 -0.078559026 0.35319009 0.078559026 -0.23990884 0.35319009
		 0.21708623 -0.21708623 0.3088831 0.23990886 -0.078559026 0.35319009 0.084635414 -0.084635414 0.41015625
		 0.084635414 0.084635414 0.41015625 0.23990884 0.078559026 0.35319009 0.21708624 0.21708623 0.3088831
		 0.078559026 0.23990886 0.35319009 -0.23990884 0.078559026 0.35319009 -0.084635414 0.084635414 0.41015625
		 -0.078559026 0.23990884 0.35319009 -0.21708623 0.21708623 0.3088831 -0.21708623 0.3088831 0.21708624
		 -0.078559026 0.35319009 0.23990884 -0.084635414 0.41015625 0.084635414 -0.23990884 0.35319009 0.078559026
		 0.078559026 0.35319009 0.23990884 0.21708623 0.3088831 0.21708623 0.23990886 0.35319009 0.078559026
		 0.084635414 0.41015625 0.084635414 0.084635414 0.41015625 -0.084635414 0.23990884 0.35319009 -0.078559026
		 0.21708624 0.3088831 -0.21708623 0.078559026 0.35319009 -0.23990886 -0.23990884 0.35319009 -0.078559026
		 -0.084635414 0.41015625 -0.084635414 -0.078559026 0.35319009 -0.23990884 -0.21708623 0.3088831 -0.21708623
		 -0.21708623 0.21708624 -0.3088831 -0.078559026 0.23990884 -0.35319009 -0.084635414 0.084635414 -0.41015625
		 -0.23990884 0.078559026 -0.35319009 0.078559026 0.23990884 -0.35319009 0.21708623 0.21708623 -0.3088831
		 0.23990886 0.078559026 -0.35319009 0.084635414 0.084635414 -0.41015625 0.084635414 -0.084635414 -0.41015625
		 0.23990884 -0.078559026 -0.35319009;
	setAttr ".vt[332:385]" 0.21708624 -0.21708623 -0.3088831 0.078559026 -0.23990886 -0.35319009
		 -0.23990884 -0.078559026 -0.35319009 -0.084635414 -0.084635414 -0.41015625 -0.078559026 -0.23990884 -0.35319009
		 -0.21708623 -0.21708623 -0.3088831 -0.21708623 -0.3088831 -0.21708624 -0.078559026 -0.35319009 -0.23990884
		 -0.084635414 -0.41015625 -0.084635414 -0.23990884 -0.35319009 -0.078559026 0.078559026 -0.35319009 -0.23990884
		 0.21708623 -0.3088831 -0.21708623 0.23990886 -0.35319009 -0.078559026 0.084635414 -0.41015625 -0.084635414
		 0.084635414 -0.41015625 0.084635414 0.23990884 -0.35319009 0.078559026 0.21708624 -0.3088831 0.21708623
		 0.078559026 -0.35319009 0.23990886 -0.23990884 -0.35319009 0.078559026 -0.084635414 -0.41015625 0.084635414
		 -0.078559026 -0.35319009 0.23990884 -0.21708623 -0.3088831 0.21708623 0.3088831 -0.21708624 0.21708623
		 0.35319009 -0.23990884 0.078559026 0.41015625 -0.084635414 0.084635414 0.35319009 -0.078559026 0.23990886
		 0.35319009 -0.23990884 -0.078559026 0.3088831 -0.21708623 -0.21708623 0.35319009 -0.078559026 -0.23990886
		 0.41015625 -0.084635414 -0.084635414 0.41015625 0.084635414 -0.084635414 0.35319009 0.078559026 -0.23990884
		 0.3088831 0.21708623 -0.21708624 0.35319009 0.23990886 -0.078559026 0.35319009 0.078559026 0.23990884
		 0.41015625 0.084635414 0.084635414 0.35319009 0.23990884 0.078559026 0.3088831 0.21708623 0.21708623
		 -0.3088831 -0.21708624 -0.21708623 -0.35319009 -0.23990884 -0.078559026 -0.41015625 -0.084635414 -0.084635414
		 -0.35319009 -0.078559026 -0.23990886 -0.35319009 -0.23990884 0.078559026 -0.3088831 -0.21708623 0.21708623
		 -0.35319009 -0.078559026 0.23990886 -0.41015625 -0.084635414 0.084635414 -0.41015625 0.084635414 0.084635414
		 -0.35319009 0.078559026 0.23990884 -0.3088831 0.21708623 0.21708624 -0.35319009 0.23990886 0.078559026
		 -0.35319009 0.078559026 -0.23990884 -0.41015625 0.084635414 -0.084635414 -0.35319009 0.23990884 -0.078559026
		 -0.3088831 0.21708623 -0.21708623;
	setAttr -s 768 ".ed";
	setAttr ".ed[0:165]"  0 288 1 288 72 1 72 100 1 100 18 1 18 108 1 108 28 1
		 28 111 1 111 1 1 2 135 1 135 35 1 35 133 1 133 9 1 9 127 1 127 33 1 33 125 1 125 3 1
		 4 171 1 171 45 1 45 169 1 169 12 1 12 163 1 163 43 1 43 161 1 161 5 1 6 207 1 207 55 1
		 55 205 1 205 15 1 15 199 1 199 53 1 53 197 1 197 7 1 0 289 1 289 73 1 73 106 1 106 19 1
		 19 128 1 128 34 1 34 134 1 134 2 1 1 112 1 112 29 1 29 115 1 115 8 1 8 121 1 121 32 1
		 32 124 1 124 3 1 2 136 1 136 36 1 36 144 1 144 10 1 10 164 1 164 44 1 44 170 1 170 4 1
		 3 148 1 148 39 1 39 151 1 151 11 1 11 157 1 157 42 1 42 160 1 160 5 1 4 172 1 172 46 1
		 46 180 1 180 13 1 13 200 1 200 54 1 54 206 1 206 6 1 5 184 1 184 49 1 49 187 1 187 14 1
		 14 193 1 193 52 1 52 196 1 196 7 1 6 208 1 208 56 1 56 216 1 216 16 1 16 234 1 234 63 1
		 63 239 1 239 0 1 7 220 1 220 59 1 59 223 1 223 17 1 17 229 1 229 62 1 62 232 1 232 1 1
		 18 101 1 101 26 1 26 104 1 104 20 1 20 105 1 105 27 1 27 107 1 107 19 1 8 116 1 116 30 1
		 30 117 1 117 20 1 9 126 1 126 31 1 31 118 1 118 20 1 9 139 1 139 37 1 37 142 1 142 21 1
		 21 143 1 143 38 1 38 145 1 145 10 1 11 152 1 152 40 1 40 153 1 153 21 1 12 162 1
		 162 41 1 41 154 1 154 21 1 12 175 1 175 47 1 47 178 1 178 22 1 22 179 1 179 48 1
		 48 181 1 181 13 1 14 188 1 188 50 1 50 189 1 189 22 1 15 198 1 198 51 1 51 190 1
		 190 22 1 15 211 1 211 57 1 57 214 1 214 23 1 23 215 1 215 58 1 58 217 1 217 16 1
		 17 224 1 224 60 1 60 225 1 225 23 1 18 233 1 233 61 1 61 226 1 226 23 1 17 242 1
		 242 64 1 64 245 1 245 24 1 24 246 1 246 65 1;
	setAttr ".ed[166:331]" 65 247 1 247 8 1 14 252 1 252 66 1 66 253 1 253 24 1
		 11 259 1 259 67 1 67 254 1 254 24 1 16 266 1 266 68 1 68 269 1 269 25 1 25 270 1
		 270 69 1 69 271 1 271 13 1 19 276 1 276 70 1 70 277 1 277 25 1 10 283 1 283 71 1
		 71 278 1 278 25 1 72 98 1 98 74 1 74 99 1 99 73 1 26 102 1 102 74 1 27 103 1 103 74 1
		 28 109 1 109 75 1 75 110 1 110 26 1 29 113 1 113 75 1 30 114 1 114 75 1 30 119 1
		 119 76 1 76 120 1 120 31 1 32 122 1 122 76 1 33 123 1 123 76 1 27 129 1 129 77 1
		 77 130 1 130 34 1 31 131 1 131 77 1 35 132 1 132 77 1 35 137 1 137 78 1 78 138 1
		 138 36 1 37 140 1 140 78 1 38 141 1 141 78 1 33 146 1 146 79 1 79 147 1 147 37 1
		 39 149 1 149 79 1 40 150 1 150 79 1 40 155 1 155 80 1 80 156 1 156 41 1 42 158 1
		 158 80 1 43 159 1 159 80 1 38 165 1 165 81 1 81 166 1 166 44 1 41 167 1 167 81 1
		 45 168 1 168 81 1 45 173 1 173 82 1 82 174 1 174 46 1 47 176 1 176 82 1 48 177 1
		 177 82 1 43 182 1 182 83 1 83 183 1 183 47 1 49 185 1 185 83 1 50 186 1 186 83 1
		 50 191 1 191 84 1 84 192 1 192 51 1 52 194 1 194 84 1 53 195 1 195 84 1 48 201 1
		 201 85 1 85 202 1 202 54 1 51 203 1 203 85 1 55 204 1 204 85 1 55 209 1 209 86 1
		 86 210 1 210 56 1 57 212 1 212 86 1 58 213 1 213 86 1 53 218 1 218 87 1 87 219 1
		 219 57 1 59 221 1 221 87 1 60 222 1 222 87 1 60 227 1 227 88 1 88 228 1 228 61 1
		 62 230 1 230 88 1 28 231 1 231 88 1 58 235 1 235 89 1 89 236 1 236 63 1 61 237 1
		 237 89 1 72 238 1 238 89 1 62 240 1 240 90 1 90 241 1 241 29 1 64 243 1 243 90 1
		 65 244 1 244 90 1 59 248 1 248 91 1 91 249 1 249 64 1;
	setAttr ".ed[332:497]" 52 250 1 250 91 1 66 251 1 251 91 1 66 255 1 255 92 1
		 92 256 1 256 67 1 49 257 1 257 92 1 42 258 1 258 92 1 65 260 1 260 93 1 93 261 1
		 261 32 1 67 262 1 262 93 1 39 263 1 263 93 1 56 264 1 264 94 1 94 265 1 265 54 1
		 68 267 1 267 94 1 69 268 1 268 94 1 63 272 1 272 95 1 95 273 1 273 68 1 73 274 1
		 274 95 1 70 275 1 275 95 1 70 279 1 279 96 1 96 280 1 280 71 1 34 281 1 281 96 1
		 36 282 1 282 96 1 69 284 1 284 97 1 97 285 1 285 46 1 71 286 1 286 97 1 44 287 1
		 287 97 1 288 290 1 290 289 1 98 290 1 99 290 1 100 291 1 291 98 1 101 291 1 102 291 1
		 102 292 1 292 103 1 104 292 1 105 292 1 99 293 1 293 106 1 103 293 1 107 293 1 108 294 1
		 294 101 1 109 294 1 110 294 1 111 295 1 295 109 1 112 295 1 113 295 1 113 296 1 296 114 1
		 115 296 1 116 296 1 110 297 1 297 104 1 114 297 1 117 297 1 117 298 1 298 118 1 119 298 1
		 120 298 1 116 299 1 299 119 1 121 299 1 122 299 1 122 300 1 300 123 1 124 300 1 125 300 1
		 120 301 1 301 126 1 123 301 1 127 301 1 107 302 1 302 128 1 129 302 1 130 302 1 105 303 1
		 303 129 1 118 303 1 131 303 1 131 304 1 304 132 1 126 304 1 133 304 1 130 305 1 305 134 1
		 132 305 1 135 305 1 135 306 1 306 136 1 137 306 1 138 306 1 133 307 1 307 137 1 139 307 1
		 140 307 1 140 308 1 308 141 1 142 308 1 143 308 1 138 309 1 309 144 1 141 309 1 145 309 1
		 127 310 1 310 139 1 146 310 1 147 310 1 125 311 1 311 146 1 148 311 1 149 311 1 149 312 1
		 312 150 1 151 312 1 152 312 1 147 313 1 313 142 1 150 313 1 153 313 1 153 314 1 314 154 1
		 155 314 1 156 314 1 152 315 1 315 155 1 157 315 1 158 315 1 158 316 1 316 159 1 160 316 1
		 161 316 1 156 317 1 317 162 1 159 317 1 163 317 1 145 318 1 318 164 1;
	setAttr ".ed[498:663]" 165 318 1 166 318 1 143 319 1 319 165 1 154 319 1 167 319 1
		 167 320 1 320 168 1 162 320 1 169 320 1 166 321 1 321 170 1 168 321 1 171 321 1 171 322 1
		 322 172 1 173 322 1 174 322 1 169 323 1 323 173 1 175 323 1 176 323 1 176 324 1 324 177 1
		 178 324 1 179 324 1 174 325 1 325 180 1 177 325 1 181 325 1 163 326 1 326 175 1 182 326 1
		 183 326 1 161 327 1 327 182 1 184 327 1 185 327 1 185 328 1 328 186 1 187 328 1 188 328 1
		 183 329 1 329 178 1 186 329 1 189 329 1 189 330 1 330 190 1 191 330 1 192 330 1 188 331 1
		 331 191 1 193 331 1 194 331 1 194 332 1 332 195 1 196 332 1 197 332 1 192 333 1 333 198 1
		 195 333 1 199 333 1 181 334 1 334 200 1 201 334 1 202 334 1 179 335 1 335 201 1 190 335 1
		 203 335 1 203 336 1 336 204 1 198 336 1 205 336 1 202 337 1 337 206 1 204 337 1 207 337 1
		 207 338 1 338 208 1 209 338 1 210 338 1 205 339 1 339 209 1 211 339 1 212 339 1 212 340 1
		 340 213 1 214 340 1 215 340 1 210 341 1 341 216 1 213 341 1 217 341 1 199 342 1 342 211 1
		 218 342 1 219 342 1 197 343 1 343 218 1 220 343 1 221 343 1 221 344 1 344 222 1 223 344 1
		 224 344 1 219 345 1 345 214 1 222 345 1 225 345 1 225 346 1 346 226 1 227 346 1 228 346 1
		 224 347 1 347 227 1 229 347 1 230 347 1 230 348 1 348 231 1 232 348 1 111 348 1 228 349 1
		 349 233 1 231 349 1 108 349 1 217 350 1 350 234 1 235 350 1 236 350 1 215 351 1 351 235 1
		 226 351 1 237 351 1 237 352 1 352 238 1 233 352 1 100 352 1 236 353 1 353 239 1 238 353 1
		 288 353 1 232 354 1 354 112 1 240 354 1 241 354 1 229 355 1 355 240 1 242 355 1 243 355 1
		 243 356 1 356 244 1 245 356 1 246 356 1 241 357 1 357 115 1 244 357 1 247 357 1 223 358 1
		 358 242 1 248 358 1 249 358 1 220 359 1 359 248 1 196 359 1 250 359 1;
	setAttr ".ed[664:767]" 250 360 1 360 251 1 193 360 1 252 360 1 249 361 1 361 245 1
		 251 361 1 253 361 1 253 362 1 362 254 1 255 362 1 256 362 1 252 363 1 363 255 1 187 363 1
		 257 363 1 257 364 1 364 258 1 184 364 1 160 364 1 256 365 1 365 259 1 258 365 1 157 365 1
		 247 366 1 366 121 1 260 366 1 261 366 1 246 367 1 367 260 1 254 367 1 262 367 1 262 368 1
		 368 263 1 259 368 1 151 368 1 261 369 1 369 124 1 263 369 1 148 369 1 208 370 1 370 206 1
		 264 370 1 265 370 1 216 371 1 371 264 1 266 371 1 267 371 1 267 372 1 372 268 1 269 372 1
		 270 372 1 265 373 1 373 200 1 268 373 1 271 373 1 234 374 1 374 266 1 272 374 1 273 374 1
		 239 375 1 375 272 1 289 375 1 274 375 1 274 376 1 376 275 1 106 376 1 276 376 1 273 377 1
		 377 269 1 275 377 1 277 377 1 277 378 1 378 278 1 279 378 1 280 378 1 276 379 1 379 279 1
		 128 379 1 281 379 1 281 380 1 380 282 1 134 380 1 136 380 1 280 381 1 381 283 1 282 381 1
		 144 381 1 271 382 1 382 180 1 284 382 1 285 382 1 270 383 1 383 284 1 278 383 1 286 383 1
		 286 384 1 384 287 1 283 384 1 164 384 1 285 385 1 385 172 1 287 385 1 170 385 1;
	setAttr -s 384 -ch 1536 ".fc[0:383]" -type "polyFaces" 
		f 4 0 384 385 -33
		mu 0 4 0 1 2 3
		f 4 1 192 386 -385
		mu 0 4 1 4 5 2
		f 4 -387 193 194 387
		mu 0 4 2 5 6 7
		f 4 -386 -388 195 -34
		mu 0 4 3 2 7 8
		f 4 2 388 389 -193
		mu 0 4 4 9 10 5
		f 4 3 96 390 -389
		mu 0 4 9 11 12 10
		f 4 -391 97 196 391
		mu 0 4 10 12 13 14
		f 4 -390 -392 197 -194
		mu 0 4 5 10 14 6
		f 4 -198 392 393 199
		mu 0 4 6 14 15 16
		f 4 -197 98 394 -393
		mu 0 4 14 13 17 15
		f 4 -395 99 100 395
		mu 0 4 15 17 18 19
		f 4 -394 -396 101 198
		mu 0 4 16 15 19 20
		f 4 -196 396 397 -35
		mu 0 4 8 7 21 22
		f 4 -195 -200 398 -397
		mu 0 4 7 6 16 21
		f 4 -399 -199 102 399
		mu 0 4 21 16 20 23
		f 4 -398 -400 103 -36
		mu 0 4 22 21 23 24
		f 4 4 400 401 -97
		mu 0 4 11 25 26 12
		f 4 5 200 402 -401
		mu 0 4 25 27 28 26
		f 4 -403 201 202 403
		mu 0 4 26 28 29 30
		f 4 -402 -404 203 -98
		mu 0 4 12 26 30 13
		f 4 6 404 405 -201
		mu 0 4 27 31 32 28
		f 4 7 40 406 -405
		mu 0 4 31 33 34 32
		f 4 -407 41 204 407
		mu 0 4 32 34 35 36
		f 4 -406 -408 205 -202
		mu 0 4 28 32 36 29
		f 4 -206 408 409 207
		mu 0 4 29 36 37 38
		f 4 -205 42 410 -409
		mu 0 4 36 35 39 37
		f 4 -411 43 104 411
		mu 0 4 37 39 40 41
		f 4 -410 -412 105 206
		mu 0 4 38 37 41 42
		f 4 -204 412 413 -99
		mu 0 4 13 30 43 17
		f 4 -203 -208 414 -413
		mu 0 4 30 29 38 43
		f 4 -415 -207 106 415
		mu 0 4 43 38 42 44
		f 4 -414 -416 107 -100
		mu 0 4 17 43 44 18
		f 4 -108 416 417 111
		mu 0 4 18 44 45 46
		f 4 -107 208 418 -417
		mu 0 4 44 42 47 45
		f 4 -419 209 210 419
		mu 0 4 45 47 48 49
		f 4 -418 -420 211 110
		mu 0 4 46 45 49 50
		f 4 -106 420 421 -209
		mu 0 4 42 41 51 47
		f 4 -105 44 422 -421
		mu 0 4 41 40 52 51
		f 4 -423 45 212 423
		mu 0 4 51 52 53 54
		f 4 -422 -424 213 -210
		mu 0 4 47 51 54 48
		f 4 -214 424 425 215
		mu 0 4 48 54 55 56
		f 4 -213 46 426 -425
		mu 0 4 54 53 57 55
		f 4 -427 47 -16 427
		mu 0 4 55 57 58 59
		f 4 -426 -428 -15 214
		mu 0 4 56 55 59 60
		f 4 -212 428 429 109
		mu 0 4 50 49 61 62
		f 4 -211 -216 430 -429
		mu 0 4 49 48 56 61
		f 4 -431 -215 -14 431
		mu 0 4 61 56 60 63
		f 4 -430 -432 -13 108
		mu 0 4 62 61 63 64
		f 4 -104 432 433 -37
		mu 0 4 24 23 65 66
		f 4 -103 216 434 -433
		mu 0 4 23 20 67 65
		f 4 -435 217 218 435
		mu 0 4 65 67 68 69
		f 4 -434 -436 219 -38
		mu 0 4 66 65 69 70
		f 4 -102 436 437 -217
		mu 0 4 20 19 71 67
		f 4 -101 -112 438 -437
		mu 0 4 19 18 46 71
		f 4 -439 -111 220 439
		mu 0 4 71 46 50 72
		f 4 -438 -440 221 -218
		mu 0 4 67 71 72 68
		f 4 -222 440 441 223
		mu 0 4 68 72 73 74
		f 4 -221 -110 442 -441
		mu 0 4 72 50 62 73
		f 4 -443 -109 -12 443
		mu 0 4 73 62 64 75
		f 4 -442 -444 -11 222
		mu 0 4 74 73 75 76
		f 4 -220 444 445 -39
		mu 0 4 70 69 77 78
		f 4 -219 -224 446 -445
		mu 0 4 69 68 74 77
		f 4 -447 -223 -10 447
		mu 0 4 77 74 76 79
		f 4 -446 -448 -9 -40
		mu 0 4 78 77 79 80
		f 4 8 448 449 -49
		mu 0 4 80 79 81 82
		f 4 9 224 450 -449
		mu 0 4 79 76 83 81
		f 4 -451 225 226 451
		mu 0 4 81 83 84 85
		f 4 -450 -452 227 -50
		mu 0 4 82 81 85 86
		f 4 10 452 453 -225
		mu 0 4 76 75 87 83
		f 4 11 112 454 -453
		mu 0 4 75 64 88 87
		f 4 -455 113 228 455
		mu 0 4 87 88 89 90
		f 4 -454 -456 229 -226
		mu 0 4 83 87 90 84
		f 4 -230 456 457 231
		mu 0 4 84 90 91 92
		f 4 -229 114 458 -457
		mu 0 4 90 89 93 91
		f 4 -459 115 116 459
		mu 0 4 91 93 94 95
		f 4 -458 -460 117 230
		mu 0 4 92 91 95 96
		f 4 -228 460 461 -51
		mu 0 4 86 85 97 98
		f 4 -227 -232 462 -461
		mu 0 4 85 84 92 97
		f 4 -463 -231 118 463
		mu 0 4 97 92 96 99
		f 4 -462 -464 119 -52
		mu 0 4 98 97 99 100
		f 4 12 464 465 -113
		mu 0 4 64 63 101 88
		f 4 13 232 466 -465
		mu 0 4 63 60 102 101
		f 4 -467 233 234 467
		mu 0 4 101 102 103 104
		f 4 -466 -468 235 -114
		mu 0 4 88 101 104 89
		f 4 14 468 469 -233
		mu 0 4 60 59 105 102
		f 4 15 56 470 -469
		mu 0 4 59 58 106 105
		f 4 -471 57 236 471
		mu 0 4 105 106 107 108
		f 4 -470 -472 237 -234
		mu 0 4 102 105 108 103
		f 4 -238 472 473 239
		mu 0 4 103 108 109 110
		f 4 -237 58 474 -473
		mu 0 4 108 107 111 109
		f 4 -475 59 120 475
		mu 0 4 109 111 112 113
		f 4 -474 -476 121 238
		mu 0 4 110 109 113 114
		f 4 -236 476 477 -115
		mu 0 4 89 104 115 93
		f 4 -235 -240 478 -477
		mu 0 4 104 103 110 115
		f 4 -479 -239 122 479
		mu 0 4 115 110 114 116
		f 4 -478 -480 123 -116
		mu 0 4 93 115 116 94
		f 4 -124 480 481 127
		mu 0 4 94 116 117 118
		f 4 -123 240 482 -481
		mu 0 4 116 114 119 117
		f 4 -483 241 242 483
		mu 0 4 117 119 120 121
		f 4 -482 -484 243 126
		mu 0 4 118 117 121 122
		f 4 -122 484 485 -241
		mu 0 4 114 113 123 119
		f 4 -121 60 486 -485
		mu 0 4 113 112 124 123
		f 4 -487 61 244 487
		mu 0 4 123 124 125 126
		f 4 -486 -488 245 -242
		mu 0 4 119 123 126 120
		f 4 -246 488 489 247
		mu 0 4 120 126 127 128
		f 4 -245 62 490 -489
		mu 0 4 126 125 129 127
		f 4 -491 63 -24 491
		mu 0 4 127 129 130 131
		f 4 -490 -492 -23 246
		mu 0 4 128 127 131 132
		f 4 -244 492 493 125
		mu 0 4 122 121 133 134
		f 4 -243 -248 494 -493
		mu 0 4 121 120 128 133
		f 4 -495 -247 -22 495
		mu 0 4 133 128 132 135
		f 4 -494 -496 -21 124
		mu 0 4 134 133 135 136
		f 4 -120 496 497 -53
		mu 0 4 100 99 137 138
		f 4 -119 248 498 -497
		mu 0 4 99 96 139 137
		f 4 -499 249 250 499
		mu 0 4 137 139 140 141
		f 4 -498 -500 251 -54
		mu 0 4 138 137 141 142
		f 4 -118 500 501 -249
		mu 0 4 96 95 143 139
		f 4 -117 -128 502 -501
		mu 0 4 95 94 118 143
		f 4 -503 -127 252 503
		mu 0 4 143 118 122 144
		f 4 -502 -504 253 -250
		mu 0 4 139 143 144 140
		f 4 -254 504 505 255
		mu 0 4 140 144 145 146
		f 4 -253 -126 506 -505
		mu 0 4 144 122 134 145
		f 4 -507 -125 -20 507
		mu 0 4 145 134 136 147
		f 4 -506 -508 -19 254
		mu 0 4 146 145 147 148
		f 4 -252 508 509 -55
		mu 0 4 142 141 149 150
		f 4 -251 -256 510 -509
		mu 0 4 141 140 146 149
		f 4 -511 -255 -18 511
		mu 0 4 149 146 148 151
		f 4 -510 -512 -17 -56
		mu 0 4 150 149 151 152
		f 4 16 512 513 -65
		mu 0 4 152 151 153 154
		f 4 17 256 514 -513
		mu 0 4 151 148 155 153
		f 4 -515 257 258 515
		mu 0 4 153 155 156 157
		f 4 -514 -516 259 -66
		mu 0 4 154 153 157 158
		f 4 18 516 517 -257
		mu 0 4 148 147 159 155
		f 4 19 128 518 -517
		mu 0 4 147 136 160 159
		f 4 -519 129 260 519
		mu 0 4 159 160 161 162
		f 4 -518 -520 261 -258
		mu 0 4 155 159 162 156
		f 4 -262 520 521 263
		mu 0 4 156 162 163 164
		f 4 -261 130 522 -521
		mu 0 4 162 161 165 163
		f 4 -523 131 132 523
		mu 0 4 163 165 166 167
		f 4 -522 -524 133 262
		mu 0 4 164 163 167 168
		f 4 -260 524 525 -67
		mu 0 4 158 157 169 170
		f 4 -259 -264 526 -525
		mu 0 4 157 156 164 169
		f 4 -527 -263 134 527
		mu 0 4 169 164 168 171
		f 4 -526 -528 135 -68
		mu 0 4 170 169 171 172
		f 4 20 528 529 -129
		mu 0 4 136 135 173 160
		f 4 21 264 530 -529
		mu 0 4 135 132 174 173
		f 4 -531 265 266 531
		mu 0 4 173 174 175 176
		f 4 -530 -532 267 -130
		mu 0 4 160 173 176 161
		f 4 22 532 533 -265
		mu 0 4 132 131 177 174
		f 4 23 72 534 -533
		mu 0 4 131 130 178 177
		f 4 -535 73 268 535
		mu 0 4 177 178 179 180
		f 4 -534 -536 269 -266
		mu 0 4 174 177 180 175
		f 4 -270 536 537 271
		mu 0 4 175 180 181 182
		f 4 -269 74 538 -537
		mu 0 4 180 179 183 181
		f 4 -539 75 136 539
		mu 0 4 181 183 184 185
		f 4 -538 -540 137 270
		mu 0 4 182 181 185 186
		f 4 -268 540 541 -131
		mu 0 4 161 176 187 165
		f 4 -267 -272 542 -541
		mu 0 4 176 175 182 187
		f 4 -543 -271 138 543
		mu 0 4 187 182 186 188
		f 4 -542 -544 139 -132
		mu 0 4 165 187 188 166
		f 4 -140 544 545 143
		mu 0 4 166 188 189 190
		f 4 -139 272 546 -545
		mu 0 4 188 186 191 189
		f 4 -547 273 274 547
		mu 0 4 189 191 192 193
		f 4 -546 -548 275 142
		mu 0 4 190 189 193 194
		f 4 -138 548 549 -273
		mu 0 4 186 185 195 191
		f 4 -137 76 550 -549
		mu 0 4 185 184 196 195
		f 4 -551 77 276 551
		mu 0 4 195 196 197 198
		f 4 -550 -552 277 -274
		mu 0 4 191 195 198 192
		f 4 -278 552 553 279
		mu 0 4 192 198 199 200
		f 4 -277 78 554 -553
		mu 0 4 198 197 201 199
		f 4 -555 79 -32 555
		mu 0 4 199 201 202 203
		f 4 -554 -556 -31 278
		mu 0 4 200 199 203 204
		f 4 -276 556 557 141
		mu 0 4 194 193 205 206
		f 4 -275 -280 558 -557
		mu 0 4 193 192 200 205
		f 4 -559 -279 -30 559
		mu 0 4 205 200 204 207
		f 4 -558 -560 -29 140
		mu 0 4 206 205 207 208
		f 4 -136 560 561 -69
		mu 0 4 172 171 209 210
		f 4 -135 280 562 -561
		mu 0 4 171 168 211 209
		f 4 -563 281 282 563
		mu 0 4 209 211 212 213
		f 4 -562 -564 283 -70
		mu 0 4 210 209 213 214
		f 4 -134 564 565 -281
		mu 0 4 168 167 215 211
		f 4 -133 -144 566 -565
		mu 0 4 167 166 190 215
		f 4 -567 -143 284 567
		mu 0 4 215 190 194 216
		f 4 -566 -568 285 -282
		mu 0 4 211 215 216 212
		f 4 -286 568 569 287
		mu 0 4 212 216 217 218
		f 4 -285 -142 570 -569
		mu 0 4 216 194 206 217
		f 4 -571 -141 -28 571
		mu 0 4 217 206 208 219
		f 4 -570 -572 -27 286
		mu 0 4 218 217 219 220
		f 4 -284 572 573 -71
		mu 0 4 214 213 221 222
		f 4 -283 -288 574 -573
		mu 0 4 213 212 218 221
		f 4 -575 -287 -26 575
		mu 0 4 221 218 220 223
		f 4 -574 -576 -25 -72
		mu 0 4 222 221 223 224
		f 4 24 576 577 -81
		mu 0 4 224 223 225 226
		f 4 25 288 578 -577
		mu 0 4 223 220 227 225
		f 4 -579 289 290 579
		mu 0 4 225 227 228 229
		f 4 -578 -580 291 -82
		mu 0 4 226 225 229 230
		f 4 26 580 581 -289
		mu 0 4 220 219 231 227
		f 4 27 144 582 -581
		mu 0 4 219 208 232 231
		f 4 -583 145 292 583
		mu 0 4 231 232 233 234
		f 4 -582 -584 293 -290
		mu 0 4 227 231 234 228
		f 4 -294 584 585 295
		mu 0 4 228 234 235 236
		f 4 -293 146 586 -585
		mu 0 4 234 233 237 235
		f 4 -587 147 148 587
		mu 0 4 235 237 238 239
		f 4 -586 -588 149 294
		mu 0 4 236 235 239 240
		f 4 -292 588 589 -83
		mu 0 4 230 229 241 242
		f 4 -291 -296 590 -589
		mu 0 4 229 228 236 241
		f 4 -591 -295 150 591
		mu 0 4 241 236 240 243
		f 4 -590 -592 151 -84
		mu 0 4 242 241 243 244
		f 4 28 592 593 -145
		mu 0 4 208 207 245 232
		f 4 29 296 594 -593
		mu 0 4 207 204 246 245
		f 4 -595 297 298 595
		mu 0 4 245 246 247 248
		f 4 -594 -596 299 -146
		mu 0 4 232 245 248 233
		f 4 30 596 597 -297
		mu 0 4 204 203 249 246
		f 4 31 88 598 -597
		mu 0 4 203 202 250 249
		f 4 -599 89 300 599
		mu 0 4 249 250 251 252
		f 4 -598 -600 301 -298
		mu 0 4 246 249 252 247
		f 4 -302 600 601 303
		mu 0 4 247 252 253 254
		f 4 -301 90 602 -601
		mu 0 4 252 251 255 253
		f 4 -603 91 152 603
		mu 0 4 253 255 256 257
		f 4 -602 -604 153 302
		mu 0 4 254 253 257 258
		f 4 -300 604 605 -147
		mu 0 4 233 248 259 237
		f 4 -299 -304 606 -605
		mu 0 4 248 247 254 259
		f 4 -607 -303 154 607
		mu 0 4 259 254 258 260
		f 4 -606 -608 155 -148
		mu 0 4 237 259 260 238
		f 4 -156 608 609 159
		mu 0 4 238 260 261 262
		f 4 -155 304 610 -609
		mu 0 4 260 258 263 261
		f 4 -611 305 306 611
		mu 0 4 261 263 264 265
		f 4 -610 -612 307 158
		mu 0 4 262 261 265 266
		f 4 -154 612 613 -305
		mu 0 4 258 257 267 263
		f 4 -153 92 614 -613
		mu 0 4 257 256 268 267
		f 4 -615 93 308 615
		mu 0 4 267 268 269 270
		f 4 -614 -616 309 -306
		mu 0 4 263 267 270 264
		f 4 -310 616 617 311
		mu 0 4 264 270 271 272
		f 4 -309 94 618 -617
		mu 0 4 270 269 273 271
		f 4 -619 95 -8 619
		mu 0 4 271 273 274 275
		f 4 -618 -620 -7 310
		mu 0 4 272 271 275 276
		f 4 -308 620 621 157
		mu 0 4 266 265 277 278
		f 4 -307 -312 622 -621
		mu 0 4 265 264 272 277
		f 4 -623 -311 -6 623
		mu 0 4 277 272 276 279
		f 4 -622 -624 -5 156
		mu 0 4 278 277 279 280
		f 4 -152 624 625 -85
		mu 0 4 244 243 281 282
		f 4 -151 312 626 -625
		mu 0 4 243 240 283 281
		f 4 -627 313 314 627
		mu 0 4 281 283 284 285
		f 4 -626 -628 315 -86
		mu 0 4 282 281 285 286
		f 4 -150 628 629 -313
		mu 0 4 240 239 287 283
		f 4 -149 -160 630 -629
		mu 0 4 239 238 262 287
		f 4 -631 -159 316 631
		mu 0 4 287 262 266 288
		f 4 -630 -632 317 -314
		mu 0 4 283 287 288 284
		f 4 -318 632 633 319
		mu 0 4 284 288 289 290
		f 4 -317 -158 634 -633
		mu 0 4 288 266 278 289
		f 4 -635 -157 -4 635
		mu 0 4 289 278 280 291
		f 4 -634 -636 -3 318
		mu 0 4 290 289 291 292
		f 4 -316 636 637 -87
		mu 0 4 286 285 293 294
		f 4 -315 -320 638 -637
		mu 0 4 285 284 290 293
		f 4 -639 -319 -2 639
		mu 0 4 293 290 292 295
		f 4 -638 -640 -1 -88
		mu 0 4 294 293 295 296
		f 4 -96 640 641 -41
		mu 0 4 33 297 298 34
		f 4 -95 320 642 -641
		mu 0 4 297 299 300 298
		f 4 -643 321 322 643
		mu 0 4 298 300 301 302
		f 4 -642 -644 323 -42
		mu 0 4 34 298 302 35
		f 4 -94 644 645 -321
		mu 0 4 299 303 304 300
		f 4 -93 160 646 -645
		mu 0 4 303 305 306 304
		f 4 -647 161 324 647
		mu 0 4 304 306 307 308
		f 4 -646 -648 325 -322
		mu 0 4 300 304 308 301
		f 4 -326 648 649 327
		mu 0 4 301 308 309 310
		f 4 -325 162 650 -649
		mu 0 4 308 307 311 309
		f 4 -651 163 164 651
		mu 0 4 309 311 312 313
		f 4 -650 -652 165 326
		mu 0 4 310 309 313 314
		f 4 -324 652 653 -43
		mu 0 4 35 302 315 39
		f 4 -323 -328 654 -653
		mu 0 4 302 301 310 315
		f 4 -655 -327 166 655
		mu 0 4 315 310 314 316
		f 4 -654 -656 167 -44
		mu 0 4 39 315 316 40
		f 4 -92 656 657 -161
		mu 0 4 305 317 318 306
		f 4 -91 328 658 -657
		mu 0 4 317 319 320 318
		f 4 -659 329 330 659
		mu 0 4 318 320 321 322
		f 4 -658 -660 331 -162
		mu 0 4 306 318 322 307
		f 4 -90 660 661 -329
		mu 0 4 319 323 324 320
		f 4 -89 -80 662 -661
		mu 0 4 323 325 326 324
		f 4 -663 -79 332 663
		mu 0 4 324 326 327 328
		f 4 -662 -664 333 -330
		mu 0 4 320 324 328 321
		f 4 -334 664 665 335
		mu 0 4 321 328 329 330
		f 4 -333 -78 666 -665
		mu 0 4 328 327 331 329
		f 4 -667 -77 168 667
		mu 0 4 329 331 332 333
		f 4 -666 -668 169 334
		mu 0 4 330 329 333 334
		f 4 -332 668 669 -163
		mu 0 4 307 322 335 311
		f 4 -331 -336 670 -669
		mu 0 4 322 321 330 335
		f 4 -671 -335 170 671
		mu 0 4 335 330 334 336
		f 4 -670 -672 171 -164
		mu 0 4 311 335 336 312
		f 4 -172 672 673 175
		mu 0 4 312 336 337 338
		f 4 -171 336 674 -673
		mu 0 4 336 334 339 337
		f 4 -675 337 338 675
		mu 0 4 337 339 340 341
		f 4 -674 -676 339 174
		mu 0 4 338 337 341 342
		f 4 -170 676 677 -337
		mu 0 4 334 333 343 339
		f 4 -169 -76 678 -677
		mu 0 4 333 332 344 343
		f 4 -679 -75 340 679
		mu 0 4 343 344 345 346
		f 4 -678 -680 341 -338
		mu 0 4 339 343 346 340
		f 4 -342 680 681 343
		mu 0 4 340 346 347 348
		f 4 -341 -74 682 -681
		mu 0 4 346 345 349 347
		f 4 -683 -73 -64 683
		mu 0 4 347 349 350 351
		f 4 -682 -684 -63 342
		mu 0 4 348 347 351 352
		f 4 -340 684 685 173
		mu 0 4 342 341 353 354
		f 4 -339 -344 686 -685
		mu 0 4 341 340 348 353
		f 4 -687 -343 -62 687
		mu 0 4 353 348 352 355
		f 4 -686 -688 -61 172
		mu 0 4 354 353 355 356
		f 4 -168 688 689 -45
		mu 0 4 40 316 357 52
		f 4 -167 344 690 -689
		mu 0 4 316 314 358 357
		f 4 -691 345 346 691
		mu 0 4 357 358 359 360
		f 4 -690 -692 347 -46
		mu 0 4 52 357 360 53
		f 4 -166 692 693 -345
		mu 0 4 314 313 361 358
		f 4 -165 -176 694 -693
		mu 0 4 313 312 338 361
		f 4 -695 -175 348 695
		mu 0 4 361 338 342 362
		f 4 -694 -696 349 -346
		mu 0 4 358 361 362 359
		f 4 -350 696 697 351
		mu 0 4 359 362 363 364
		f 4 -349 -174 698 -697
		mu 0 4 362 342 354 363
		f 4 -699 -173 -60 699
		mu 0 4 363 354 356 365
		f 4 -698 -700 -59 350
		mu 0 4 364 363 365 366
		f 4 -348 700 701 -47
		mu 0 4 53 360 367 57
		f 4 -347 -352 702 -701
		mu 0 4 360 359 364 367
		f 4 -703 -351 -58 703
		mu 0 4 367 364 366 368
		f 4 -702 -704 -57 -48
		mu 0 4 57 367 368 58
		f 4 80 704 705 71
		mu 0 4 369 370 371 372
		f 4 81 352 706 -705
		mu 0 4 370 373 374 371
		f 4 -707 353 354 707
		mu 0 4 371 374 375 376
		f 4 -706 -708 355 70
		mu 0 4 372 371 376 377
		f 4 82 708 709 -353
		mu 0 4 373 378 379 374
		f 4 83 176 710 -709
		mu 0 4 378 380 381 379
		f 4 -711 177 356 711
		mu 0 4 379 381 382 383
		f 4 -710 -712 357 -354
		mu 0 4 374 379 383 375
		f 4 -358 712 713 359
		mu 0 4 375 383 384 385
		f 4 -357 178 714 -713
		mu 0 4 383 382 386 384
		f 4 -715 179 180 715
		mu 0 4 384 386 387 388
		f 4 -714 -716 181 358
		mu 0 4 385 384 388 389
		f 4 -356 716 717 69
		mu 0 4 377 376 390 391
		f 4 -355 -360 718 -717
		mu 0 4 376 375 385 390
		f 4 -719 -359 182 719
		mu 0 4 390 385 389 392
		f 4 -718 -720 183 68
		mu 0 4 391 390 392 393
		f 4 84 720 721 -177
		mu 0 4 380 394 395 381
		f 4 85 360 722 -721
		mu 0 4 394 396 397 395
		f 4 -723 361 362 723
		mu 0 4 395 397 398 399
		f 4 -722 -724 363 -178
		mu 0 4 381 395 399 382
		f 4 86 724 725 -361
		mu 0 4 396 400 401 397
		f 4 87 32 726 -725
		mu 0 4 400 0 3 401
		f 4 -727 33 364 727
		mu 0 4 401 3 8 402
		f 4 -726 -728 365 -362
		mu 0 4 397 401 402 398
		f 4 -366 728 729 367
		mu 0 4 398 402 403 404
		f 4 -365 34 730 -729
		mu 0 4 402 8 22 403
		f 4 -731 35 184 731
		mu 0 4 403 22 24 405
		f 4 -730 -732 185 366
		mu 0 4 404 403 405 406
		f 4 -364 732 733 -179
		mu 0 4 382 399 407 386
		f 4 -363 -368 734 -733
		mu 0 4 399 398 404 407
		f 4 -735 -367 186 735
		mu 0 4 407 404 406 408
		f 4 -734 -736 187 -180
		mu 0 4 386 407 408 387
		f 4 -188 736 737 191
		mu 0 4 387 408 409 410
		f 4 -187 368 738 -737
		mu 0 4 408 406 411 409
		f 4 -739 369 370 739
		mu 0 4 409 411 412 413
		f 4 -738 -740 371 190
		mu 0 4 410 409 413 414
		f 4 -186 740 741 -369
		mu 0 4 406 405 415 411
		f 4 -185 36 742 -741
		mu 0 4 405 24 66 415
		f 4 -743 37 372 743
		mu 0 4 415 66 70 416
		f 4 -742 -744 373 -370
		mu 0 4 411 415 416 412
		f 4 -374 744 745 375
		mu 0 4 412 416 417 418
		f 4 -373 38 746 -745
		mu 0 4 416 70 78 417
		f 4 -747 39 48 747
		mu 0 4 417 78 80 419
		f 4 -746 -748 49 374
		mu 0 4 418 417 419 420
		f 4 -372 748 749 189
		mu 0 4 414 413 421 422
		f 4 -371 -376 750 -749
		mu 0 4 413 412 418 421
		f 4 -751 -375 50 751
		mu 0 4 421 418 420 423
		f 4 -750 -752 51 188
		mu 0 4 422 421 423 424
		f 4 -184 752 753 67
		mu 0 4 393 392 425 426
		f 4 -183 376 754 -753
		mu 0 4 392 389 427 425
		f 4 -755 377 378 755
		mu 0 4 425 427 428 429
		f 4 -754 -756 379 66
		mu 0 4 426 425 429 430
		f 4 -182 756 757 -377
		mu 0 4 389 388 431 427
		f 4 -181 -192 758 -757
		mu 0 4 388 387 410 431
		f 4 -759 -191 380 759
		mu 0 4 431 410 414 432
		f 4 -758 -760 381 -378
		mu 0 4 427 431 432 428
		f 4 -382 760 761 383
		mu 0 4 428 432 433 434
		f 4 -381 -190 762 -761
		mu 0 4 432 414 422 433
		f 4 -763 -189 52 763
		mu 0 4 433 422 424 435
		f 4 -762 -764 53 382
		mu 0 4 434 433 435 436
		f 4 -380 764 765 65
		mu 0 4 430 429 437 438
		f 4 -379 -384 766 -765
		mu 0 4 429 428 434 437
		f 4 -767 -383 54 767
		mu 0 4 437 434 436 439
		f 4 -766 -768 55 64
		mu 0 4 438 437 439 440;
	setAttr ".cd" -type "dataPolyComponent" Index_Data Edge 0 ;
	setAttr ".cvd" -type "dataPolyComponent" Index_Data Vertex 0 ;
	setAttr ".pd[0]" -type "dataPolyComponent" Index_Data UV 0 ;
	setAttr ".hfd" -type "dataPolyComponent" Index_Data Face 0 ;
select -ne :time1;
	setAttr ".o" 1;
	setAttr ".unw" 1;
select -ne :hardwareRenderingGlobals;
	setAttr ".otfna" -type "stringArray" 22 "NURBS Curves" "NURBS Surfaces" "Polygons" "Subdiv Surface" "Particles" "Particle Instance" "Fluids" "Strokes" "Image Planes" "UI" "Lights" "Cameras" "Locators" "Joints" "IK Handles" "Deformers" "Motion Trails" "Components" "Hair Systems" "Follicles" "Misc. UI" "Ornaments"  ;
	setAttr ".otfva" -type "Int32Array" 22 0 1 1 1 1 1
		 1 1 1 0 0 0 0 0 0 0 0 0
		 0 0 0 0 ;
	setAttr ".fprt" yes;
select -ne :renderPartition;
	setAttr -s 2 ".st";
select -ne :renderGlobalsList1;
select -ne :defaultShaderList1;
	setAttr -s 4 ".s";
select -ne :postProcessList1;
	setAttr -s 2 ".p";
select -ne :defaultRenderingList1;
select -ne :initialShadingGroup;
	setAttr -s 2 ".dsm";
	setAttr ".ro" yes;
select -ne :initialParticleSE;
	setAttr ".ro" yes;
select -ne :defaultResolution;
	setAttr ".pa" 1;
select -ne :hardwareRenderGlobals;
	setAttr ".ctrs" 256;
	setAttr ".btrs" 512;
select -ne :ikSystem;
	setAttr -s 4 ".sol";
connectAttr "vehicleShape.iog" ":initialShadingGroup.dsm" -na;
connectAttr "directionSpeedShape.iog" ":initialShadingGroup.dsm" -na;
// End of Ship.ma
