//Maya ASCII 2016 scene
//Name: Turret.ma
//Last modified: Mon, Sep 14, 2015 05:34:52 PM
//Codeset: UTF-8
requires maya "2016";
requires "stereoCamera" "10.0";
requires "stereoCamera" "10.0";
currentUnit -l centimeter -a degree -t pal;
fileInfo "application" "maya";
fileInfo "product" "Maya 2016";
fileInfo "version" "2016";
fileInfo "cutIdentifier" "201502261600-953408";
fileInfo "osv" "Mac OS X 10.9.5";
fileInfo "license" "student";
createNode transform -n "turret_base";
	rename -uid "4DC4AC09-4E58-8CAE-4450-FE9AB4572E41";
	setAttr ".t" -type "double3" 99.029697005761165 6.3923734997721269 64.951727210926705 ;
	setAttr ".rp" -type "double3" 0 5.9384603500366211 -0.04344940185546875 ;
	setAttr ".sp" -type "double3" 0 5.9384603500366211 -0.04344940185546875 ;
createNode mesh -n "turret_baseShape" -p "turret_base";
	rename -uid "E869A9FD-4DFC-2891-73B7-CE857F07B863";
	setAttr -k off ".v";
	setAttr ".vir" yes;
	setAttr ".vif" yes;
	setAttr ".pv" -type "double2" 0.5 0.4743463397026062 ;
	setAttr ".uvst[0].uvsn" -type "string" "map1";
	setAttr -s 26 ".uvst[0].uvsp[0:25]" -type "float2" 0.50000006 0 0.75
		 0.25 0.5 0.5 0.25 0.24999999 0.35954702 0.71909404 0.25 0.5 0.375 0.5 0.42977351
		 0.71909404 0.57022649 0.71909404 0.625 0.5 0.75 0.5 0.64045298 0.71909404 0.5 0.71909404
		 0.42173153 0.87042427 0.5 0.94869268 0.57826841 0.87042427 0.5 0.79215574 0.5 0.87042427
		 0.50000006 0 0.75 0.25 0.5 0.5 0.25 0.24999999 0.50000006 0 0.75 0.25 0.5 0.5 0.25
		 0.24999999;
	setAttr ".cuvs" -type "string" "map1";
	setAttr ".dcc" -type "string" "Ambient+Diffuse";
	setAttr ".covm[0]"  0 1 1;
	setAttr ".cdvm[0]"  0 1 1;
	setAttr -s 17 ".vt[0:16]"  1.7771704e-06 0 -13.55230713 13.55230713 0 0
		 -5.9239017e-07 0 13.55230713 -13.55230713 0 -1.1847803e-06 9.9843544e-07 11.8769207 -13.63920593
		 -7.61384678 11.8769207 -6.025359631 7.61384678 11.8769207 -6.025359154 -3.3281182e-07 11.8769207 1.58848774
		 4.8416702e-08 15.82241631 -8.021478653 2.1190995e-06 -1.89862657 -16.48863983 16.48863983 -1.89862657 -3.9443045e-31
		 -7.6386584e-07 -1.89862657 16.48863983 -16.48863983 -1.89862657 -1.4414827e-06 2.1190995e-06 -15.19317055 -16.48863983
		 16.48863983 -15.19317055 -3.9443045e-31 -7.6386584e-07 -15.19317055 16.48863983 -16.48863983 -15.19317055 -1.4414827e-06;
	setAttr -s 32 ".ed[0:31]"  0 1 0 1 2 0 2 3 0 3 0 0 4 0 0 3 5 0 5 4 0
		 6 1 0 4 6 0 7 2 0 6 7 0 7 5 0 7 8 0 5 8 0 6 8 0 4 8 0 0 9 0 1 10 0 9 10 0 2 11 0
		 10 11 0 3 12 0 11 12 0 12 9 0 9 13 0 10 14 0 13 14 0 11 15 0 14 15 0 12 16 0 15 16 0
		 16 13 0;
	setAttr -s 17 -ch 64 ".fc[0:16]" -type "polyFaces" 
		f 4 26 28 30 31
		mu 0 4 22 23 24 25
		f 4 4 -4 5 6
		mu 0 4 4 5 6 7
		f 4 7 -1 -5 8
		mu 0 4 8 9 10 11
		f 4 9 -2 -8 10
		mu 0 4 12 2 9 8
		f 4 -6 -3 -10 11
		mu 0 4 7 6 2 12
		f 3 -12 12 -14
		mu 0 3 13 14 17
		f 3 -11 14 -13
		mu 0 3 14 15 17
		f 3 -9 15 -15
		mu 0 3 15 16 17
		f 3 -7 13 -16
		mu 0 3 16 13 17
		f 4 0 17 -19 -17
		mu 0 4 0 1 19 18
		f 4 1 19 -21 -18
		mu 0 4 1 2 20 19
		f 4 2 21 -23 -20
		mu 0 4 2 3 21 20
		f 4 3 16 -24 -22
		mu 0 4 3 0 18 21
		f 4 18 25 -27 -25
		mu 0 4 18 19 23 22
		f 4 20 27 -29 -26
		mu 0 4 19 20 24 23
		f 4 22 29 -31 -28
		mu 0 4 20 21 25 24
		f 4 23 24 -32 -30
		mu 0 4 21 18 22 25;
	setAttr ".cd" -type "dataPolyComponent" Index_Data Edge 0 ;
	setAttr ".cvd" -type "dataPolyComponent" Index_Data Vertex 0 ;
	setAttr ".pd[0]" -type "dataPolyComponent" Index_Data UV 0 ;
	setAttr ".hfd" -type "dataPolyComponent" Index_Data Face 0 ;
createNode transform -n "turret_top" -p "turret_base";
	rename -uid "1AD6A4CB-435C-1189-B89F-D7985A20CAD2";
	setAttr ".rp" -type "double3" 1.9073486328125e-06 17.932382649528289 -5.8457571809732762 ;
	setAttr ".sp" -type "double3" 1.9073486328125e-06 17.932382649528289 -5.8457571809732762 ;
createNode mesh -n "turret_topShape" -p "turret_top";
	rename -uid "C4F187D6-43A8-7B4E-E5C3-22A4F6B03789";
	setAttr -k off ".v";
	setAttr ".vir" yes;
	setAttr ".vif" yes;
	setAttr ".pv" -type "double2" 0.58997267484664917 0.2905070036649704 ;
	setAttr ".uvst[0].uvsn" -type "string" "map1";
	setAttr -s 236 ".uvst[0].uvsp[0:235]" -type "float2" 0.375 0.033493623
		 0.54671752 0.13263479 0.44174933 0.2508207 0.54677451 0.36733228 0.375 0.46650636
		 0.25 0.5 0.41666669 0.5 0.5 1 0.58333337 0.5 0.65743434 0.5 0.57749474 0.77658749
		 0.75000006 0.5 0.49677616 0.76094222 0.50736135 0.5 0.58327287 0.15374005 0.75 0.25
		 0.57906294 0.34869057 0.67023563 0.24919763 0.50000006 0 0.75 0.25 0.5 0.5 0.5 0.45855245
		 0.70855224 0.25 0.50000006 0.041447721 0.2914477 0.24999999 0.25 0.24999999 0.625
		 0.5 0.75 0.5 0.69241709 0.61516571 0.59620857 0.61516571 0.5 0.61516571 0.5 0.58289546
		 0.5 0.5 0.625 0.5 0.60427618 0.58289546 0.7085523 0.58289546 0.25 0.5 0.375 0.5 0.30758286
		 0.61516571 0.25 0.5 0.39572391 0.58289546 0.29144773 0.58289546 0.375 0.5 0.40379143
		 0.61516571 0.58101404 0.081014007 0.66553587 0.25104591 0.50104588 0.084464222 0.49895415
		 0.41553578 0.75 0.25 0.75 0.25 0.5 0.5 0.75 0.25 0.75 0.5 0.25 0.24999999 0.25 0.24999999
		 0.50000006 0 0.33446416 0.24895407 0.5 0.5 0.25 0.24999999 0.50000006 0 0.50000006
		 0 0.5 0.5 0.75 0.25 0.25 0.24999999 0.25 0.5 0.375 0.5 0.48121661 0.9248665 0.44327885
		 0.8175531 0.40877655 0.8175531 0.98847502 0.15138422 0.86779749 0.1329135 1 3.0941329e-09
		 0.75 0.5 0.56745249 0.73019004 0.70949304 0.5 0.50000006 0 0.465561 0.19526042 0.38025385
		 0.11974615 0.616041 0.53583598 0.5 0.5510115 0.50000006 0 0.5197643 0.92094266 0.59122348
		 0.8175531 0.55440128 0.82134598 0.36068779 0.055243623 0.3646782 0.0020813553 0.22852319
		 0.12274698 1 0 0.7996915 0.15280187 0.3468855 0.3468855 0.5 0.5 0.41563591 0.06264127
		 1 0.15071188 0.63840258 0 0.42005515 0.0020980281 0 3.0443945e-09 0.45180026 0.80720109
		 0.42344275 0.5 0.5 1 0.54439127 0.82243478 0.45440257 0.8176102 0.44327885 0.8175531
		 0.45440257 0.8176102 0.3647795 1.1286763e-09 0.36457688 0.0041627097 0.15026692 4.649458e-10
		 0.54439127 0.82243478 0.55440128 0.82134598 0.41996971 0.0041960562 0.42014056 -1.6304382e-17
		 0.1870591 -3.3715789e-17 0.5062784 0.10928725 0.69165409 0.5 0.50445974 0.39176273
		 0.47420439 0.5 0.375 0.033493623 0.5062784 0.10928725 0.54671752 0.13263479 0.44174933
		 0.2508207 0.54677451 0.36733228 0.50445974 0.39176273 0.375 0.46650636 0.25 0.5 0.41666669
		 0.5 0.5 1 0.57749474 0.77658749 0.69165409 0.5 0.75000006 0.5 0.49677616 0.76094222
		 0.50736135 0.5 0.58333337 0.5 0.58327287 0.15374005 0.75 0.25 0.57906294 0.34869057
		 0.67023563 0.24919763 0.50000006 0 0.75 0.25 0.5 0.5 0.5 0.45855245 0.70855224 0.25
		 0.50000006 0.041447721 0.2914477 0.24999999 0.25 0.24999999 0.625 0.5 0.75 0.5 0.69241709
		 0.61516571 0.59620857 0.61516571 0.5 0.61516571 0.5 0.58289546 0.5 0.5 0.625 0.5
		 0.60427618 0.58289546 0.7085523 0.58289546 0.75 0.5 0.30758286 0.61516571 0.25 0.5
		 0.375 0.5 0.40379143 0.61516571 0.39572391 0.58289546 0.29144773 0.58289546 0.25
		 0.5 0.375 0.5 0.49895415 0.41553578 0.66553587 0.25104591 0.50104588 0.084464222
		 0.50000006 0 0.58101404 0.081014007 0.75 0.25 0.5 0.5 0.75 0.25 0.5 0.5 0.75 0.25
		 0.25 0.24999999 0.25 0.24999999 0.33446416 0.24895407 0.25 0.24999999 0.50000006
		 0 0.50000006 0 0.5 0.5 0.75 0.25 0.25 0.24999999 0.44327885 0.8175531 0.45440257
		 0.8176102 0.48121661 0.9248665 0.3647795 1.1286763e-09 0.36457688 0.0041627097 0.15026692
		 4.649458e-10 0.56745249 0.73019004 0.70949304 0.5 0.75 0.5 0.59122348 0.8175531 0.55440128
		 0.82134598 0.54439127 0.82243478 0.50000006 0 0.465561 0.19526042 0.38025385 0.11974615
		 0.616041 0.53583598 0.5 0.5510115 0.50000006 0 1 0 0.7996915 0.15280187 0.22852319
		 0.12274698 0 3.0443945e-09 0.3468855 0.3468855 0.5 0.5 0.41563591 0.06264127 1 0.15071188
		 0.63840258 0 0.42005515 0.0020980281 0.45180026 0.80720109 0.42344275 0.5 0.5 1 0.54439127
		 0.82243478 0.55440128 0.82134598 0.5197643 0.92094266 0.41996971 0.0041960562 0.42014056
		 -1.6304382e-17 0.1870591 -3.3715789e-17 0.25 0.5 0.375 0.5 0.45440257 0.8176102 0.44327885
		 0.8175531 0.40877655 0.8175531 1 3.0941329e-09 0.98847502 0.15138422 0.86779749 0.1329135
		 0.36068779 0.055243623 0.3646782 0.0020813553 0.65743434 0.5 0.47420439 0.5 0.50000006
		 0 0.465561 0.19526042 0 3.0443945e-09 1 0 0.5 0.5 0.5 1;
	setAttr ".cuvs" -type "string" "map1";
	setAttr ".dcc" -type "string" "Ambient+Diffuse";
	setAttr ".covm[0]"  0 1 1;
	setAttr ".cdvm[0]"  0 1 1;
	setAttr -s 104 ".vt[0:103]"  -10.11620045 15 14 -8.75827599 18 14 -7 16.067989349 14
		 -5.25132656 18 14 -3.88379979 15 14 -7 18 32 -7 21 14 -8.38548088 18.33236313 14
		 -7.75273705 18 24 -6.19477081 18 24 -5.57953691 18.26500511 14 -7 19.72377014 14
		 -7 22.20557976 -17.64058304 -2.69031525 18 -17.64058304 -7 13.58621025 -17.64058304
		 -7 14.30071449 -17.64058304 -3.40482163 18 -17.64058304 -7 21.4910717 -17.64058304
		 -10.5951786 18 -17.64058304 -11.30968475 18 -17.64058304 -7 21.21292305 -15.46437454
		 -3.68297148 18 -15.4643755 -7 14.57886696 -15.46437454 -7 13.58620644 -19.20700073
		 -2.69031525 18 -19.20700073 -7 22.20557976 -19.20700073 -11.30968475 18 -19.20700073
		 -10.31702995 18 -15.4643755 -5.31287193 21.27828407 -15.52251244 -1.99066734 18 -15.46437454
		 -7 14.44814491 -19.20700073 -3.55225229 18 -19.20700073 -10.44774818 18 -19.20700073
		 -7 22.90522957 -15.46437454 -7 12.88656044 -15.46437454 -12.0093326569 18 -15.46437454
		 -7 21.34364128 -19.20700073 -7 14.44814491 -17.87724304 -3.55225229 18 -17.87724304
		 -10.44774818 18 -17.87724304 -7 13.49804115 -9.80059624 -4.25188208 18 5.21429253
		 0 26.56198692 -22.44846344 -7 21.34364128 -17.87724304 0 10.7960186 -5.70423508 0 18 13.75916862
		 -9.061125755 18.56143188 14 -9.49917221 18 14 -9.010873795 17.087034225 14 -4.90179396 18.49206352 14
		 -4.5158782 18 14 -4.97917366 17.075595856 14 10.11620045 15 14 9.010873795 17.087034225 14
		 8.75827599 18 14 7 16.067989349 14 5.25132656 18 14 4.97917366 17.075595856 14 3.88379979 15 14
		 7 18 32 7.75273705 18 24 6.19477081 18 24 5.57953691 18.26500511 14 7 21 14 8.38548088 18.33236313 14
		 7 19.72377014 14 7 22.20557976 -17.64058304 2.69031525 18 -17.64058304 7 13.58621025 -17.64058304
		 7 14.30071449 -17.64058304 3.40482163 18 -17.64058304 7 21.4910717 -17.64058304 10.5951786 18 -17.64058304
		 11.30968475 18 -17.64058304 7 21.21292305 -15.46437454 3.68297148 18 -15.4643755
		 7 14.57886696 -15.46437454 7 13.58620644 -19.20700073 2.69031525 18 -19.20700073
		 7 22.20557976 -19.20700073 10.31702995 18 -15.4643755 11.30968475 18 -19.20700073
		 7 22.90522957 -15.46437454 5.31287193 21.27828407 -15.52251244 1.99066734 18 -15.46437454
		 7 12.88656044 -15.46437454 7 14.44814491 -19.20700073 3.55225229 18 -19.20700073
		 10.44774818 18 -19.20700073 12.0093326569 18 -15.46437454 7 21.34364128 -19.20700073
		 7 14.44814491 -17.87724304 3.55225229 18 -17.87724304 10.44774818 18 -17.87724304
		 9.061125755 18.56143188 14 9.49917221 18 14 4.25188208 18 5.21429253 0 26.56198692 -22.44846344
		 7 13.49804115 -9.80059624 7 21.34364128 -17.87724304 0 18 13.75916862 0 10.7960186 -5.70423508
		 4.90179396 18.49206352 14 4.5158782 18 14;
	setAttr -s 200 ".ed";
	setAttr ".ed[0:165]"  0 48 0 1 2 0 2 3 0 4 0 0 4 5 0 5 0 0 6 7 0 7 8 0 5 6 0
		 9 10 0 10 6 0 10 11 0 11 7 0 12 13 0 13 14 0 14 15 0 15 16 0 16 17 0 17 12 0 17 18 0
		 18 15 0 14 19 0 19 12 0 12 20 0 20 21 0 21 13 0 21 22 0 22 14 0 15 23 0 23 24 0 24 16 0
		 17 25 0 18 26 0 26 23 0 22 27 0 27 19 0 23 30 0 30 31 0 31 24 0 24 25 0 27 20 0 25 26 0
		 26 32 0 32 30 0 33 20 0 22 34 0 34 35 0 35 33 0 33 28 0 28 29 0 29 34 0 31 36 0 36 25 0
		 30 37 0 37 38 0 38 31 0 36 32 0 32 39 0 39 37 0 35 1 0 11 33 0 34 40 0 41 28 0 42 29 0
		 28 42 0 29 40 0 38 43 0 43 36 0 39 43 0 40 2 0 29 44 0 44 40 0 40 41 0 45 42 0 41 45 0
		 44 45 0 3 41 0 10 3 0 7 1 0 7 46 0 1 47 0 46 47 0 47 8 0 46 8 0 1 48 0 47 48 0 10 49 0
		 3 50 0 49 50 0 9 49 0 9 50 0 3 51 0 50 51 0 5 8 0 8 48 0 51 4 0 5 9 0 9 51 0 52 53 0
		 54 53 0 54 55 0 55 56 0 56 57 0 57 58 0 58 52 0 58 59 0 59 52 0 59 60 0 60 53 0 59 61 0
		 61 62 0 62 63 0 59 63 0 63 64 0 62 65 0 65 64 0 66 67 0 67 68 0 68 69 0 69 70 0 70 71 0
		 71 66 0 71 72 0 72 69 0 68 73 0 73 66 0 66 74 0 74 75 0 75 67 0 75 76 0 76 68 0 69 77 0
		 77 78 0 78 70 0 78 79 0 71 79 0 80 73 0 80 74 0 79 81 0 72 81 0 81 77 0 76 80 0 82 74 0
		 82 83 0 29 84 0 83 84 0 84 85 0 76 85 0 77 86 0 86 87 0 87 78 0 81 88 0 88 86 0 85 89 0
		 89 82 0 87 90 0 90 79 0 86 91 0 91 92 0 92 87 0 90 88 0 88 93 0 93 91 0 94 95 0 95 60 0
		 94 60 0;
	setAttr ".ed[166:199]" 95 53 0 96 83 0 65 82 0 62 56 0 56 96 0 42 97 0 97 84 0
		 83 97 0 84 98 0 85 98 0 92 99 0 99 90 0 93 99 0 45 100 0 96 100 0 100 97 0 44 101 0
		 84 101 0 101 98 0 98 55 0 98 96 0 101 100 0 102 103 0 61 102 0 61 103 0 103 57 0
		 61 57 0 89 54 0 64 54 0 54 95 0 64 94 0 64 60 0 62 102 0 56 103 0;
	setAttr -s 98 -ch 400 ".fc[0:97]" -type "polyFaces" 
		f 7 -105 -104 -103 -102 -101 99 -99
		mu 0 7 0 4 113 3 2 1 111
		f 3 -107 -106 104
		mu 0 3 5 7 6
		f 4 106 98 -109 -108
		mu 0 4 7 11 112 10
		f 4 112 -112 -111 -110
		mu 0 4 7 8 13 12
		f 4 -116 -115 111 113
		mu 0 4 14 17 16 15
		f 6 -122 -121 -120 -119 -118 -117
		mu 0 6 18 23 22 21 20 19
		f 6 -126 -125 118 -124 -123 121
		mu 0 6 18 25 20 21 24 23
		f 4 -129 -128 -127 116
		mu 0 4 26 29 28 27
		f 4 -131 -130 128 117
		mu 0 4 20 30 29 26
		f 4 119 -134 -133 -132
		mu 0 4 31 34 33 32
		f 4 135 -135 133 120
		mu 0 4 35 52 33 34
		f 4 -138 136 125 126
		mu 0 4 38 43 37 36
		f 4 139 -139 -136 122
		mu 0 4 40 42 39 41
		f 4 -141 -140 123 131
		mu 0 4 32 42 40 31
		f 4 -137 -142 130 124
		mu 0 4 37 43 30 20
		f 7 147 -147 -146 -144 142 127 129
		mu 0 7 47 57 48 44 55 46 45
		f 4 -151 -150 -149 132
		mu 0 4 49 51 50 32
		f 4 148 -153 -152 140
		mu 0 4 32 50 54 53
		f 6 -155 -154 -148 141 137 -143
		mu 0 6 55 58 57 47 56 46
		f 4 -157 -156 150 134
		mu 0 4 59 60 51 49
		f 4 -160 -159 -158 149
		mu 0 4 51 62 61 50
		f 4 151 -161 156 138
		mu 0 4 53 54 60 59
		f 4 157 -163 -162 152
		mu 0 4 50 61 63 54
		f 3 165 -165 -164
		mu 0 3 101 66 102
		f 3 164 108 -167
		mu 0 3 103 105 104
		f 6 -171 -170 114 168 143 -168
		mu 0 6 73 99 83 82 72 74
		f 3 -174 145 -173
		mu 0 3 230 77 231
		f 3 146 175 -175
		mu 0 3 78 57 79
		f 4 -178 -177 159 155
		mu 0 4 60 80 62 51
		f 4 -179 162 158 176
		mu 0 4 80 63 61 62
		f 4 161 178 177 160
		mu 0 4 54 63 80 60
		f 4 -182 -181 167 173
		mu 0 4 233 232 86 88
		f 3 -185 -184 174
		mu 0 3 89 234 231
		f 4 101 170 -187 185
		mu 0 4 91 94 93 92
		f 4 180 -188 184 186
		mu 0 4 96 235 234 97
		f 3 -191 189 188
		mu 0 3 106 81 107
		f 3 -193 190 191
		mu 0 3 108 110 109
		f 5 -169 115 194 -194 154
		mu 0 5 64 68 67 100 65
		f 5 193 100 -186 -176 153
		mu 0 5 71 85 84 70 69
		f 4 196 163 -196 -195
		mu 0 4 67 101 102 100
		f 3 -166 -197 197
		mu 0 3 66 101 67
		f 3 195 166 -100
		mu 0 3 85 103 104
		f 4 199 -189 -199 169
		mu 0 4 99 106 107 83
		f 3 198 -190 110
		mu 0 3 83 107 81
		f 3 102 -192 -200
		mu 0 3 94 108 109
		f 4 -113 107 -198 -114
		mu 0 4 8 7 10 9
		f 4 105 109 192 103
		mu 0 4 6 7 12 114
		f 7 0 -85 1 2 91 95 3
		mu 0 7 115 116 117 118 119 120 121
		f 3 -4 4 5
		mu 0 3 122 123 124
		f 4 93 94 -1 -6
		mu 0 4 124 125 126 127
		f 4 96 9 10 -9
		mu 0 4 124 128 129 130
		f 4 -7 -11 11 12
		mu 0 4 131 132 133 134
		f 6 13 14 15 16 17 18
		mu 0 6 135 136 137 138 139 140
		f 6 -19 19 20 -16 21 22
		mu 0 6 135 140 141 138 137 142
		f 4 -14 23 24 25
		mu 0 4 143 144 145 146
		f 4 -15 -26 26 27
		mu 0 4 137 143 146 147
		f 4 28 29 30 -17
		mu 0 4 148 149 150 151
		f 4 -18 -31 39 -32
		mu 0 4 152 151 150 153
		f 4 -24 -23 -36 40
		mu 0 4 154 155 156 157
		f 4 -20 31 41 -33
		mu 0 4 158 159 160 161
		f 4 -29 -21 32 33
		mu 0 4 149 148 158 161
		f 4 -22 -28 34 35
		mu 0 4 156 137 147 157
		f 7 -27 -25 -45 48 49 50 -46
		mu 0 7 162 163 164 165 166 167 168
		f 4 -30 36 37 38
		mu 0 4 169 149 170 171
		f 4 -34 42 43 -37
		mu 0 4 149 172 173 170
		f 6 44 -41 -35 45 46 47
		mu 0 6 165 164 174 162 168 175
		f 4 -40 -39 51 52
		mu 0 4 176 169 171 177
		f 4 -38 53 54 55
		mu 0 4 171 170 178 179
		f 4 -42 -53 56 -43
		mu 0 4 172 176 177 173
		f 4 -44 57 58 -54
		mu 0 4 170 173 180 178
		f 3 81 82 -84
		mu 0 3 181 182 183
		f 3 85 -95 -83
		mu 0 3 184 185 186
		f 6 62 -49 -61 -12 77 76
		mu 0 6 187 188 189 190 191 192
		f 3 63 -50 64
		mu 0 3 193 194 195
		f 3 65 -62 -51
		mu 0 3 196 197 168
		f 4 -52 -56 66 67
		mu 0 4 177 171 179 198
		f 4 -67 -55 -59 68
		mu 0 4 198 179 178 180
		f 4 -57 -68 -69 -58
		mu 0 4 173 177 198 180
		f 4 -65 -63 74 73
		mu 0 4 199 200 201 202
		f 3 -66 70 71
		mu 0 3 203 194 204
		f 4 -70 72 -77 -3
		mu 0 4 205 206 207 208
		f 4 -73 -72 75 -75
		mu 0 4 209 210 204 211
		f 3 -89 -90 90
		mu 0 3 212 213 214
		f 3 -93 -91 97
		mu 0 3 215 216 217
		f 5 -48 59 -79 -13 60
		mu 0 5 218 219 220 221 222
		f 5 -47 61 69 -2 -60
		mu 0 5 223 224 225 226 227
		f 4 78 80 -82 -80
		mu 0 4 221 220 182 181
		f 3 -8 79 83
		mu 0 3 183 221 181
		f 3 84 -86 -81
		mu 0 3 227 185 184
		f 4 -78 86 88 -88
		mu 0 4 192 191 213 212
		f 3 -10 89 -87
		mu 0 3 191 214 213
		f 3 87 92 -92
		mu 0 3 208 216 215
		f 4 6 7 -94 8
		mu 0 4 130 228 125 124
		f 4 -96 -98 -97 -5
		mu 0 4 123 229 128 124
		f 4 171 172 -145 -64
		mu 0 4 75 230 231 76
		f 4 179 181 -172 -74
		mu 0 4 95 232 233 87
		f 4 144 183 -183 -71
		mu 0 4 76 231 234 90
		f 4 182 187 -180 -76
		mu 0 4 90 234 235 98;
	setAttr ".cd" -type "dataPolyComponent" Index_Data Edge 0 ;
	setAttr ".cvd" -type "dataPolyComponent" Index_Data Vertex 0 ;
	setAttr ".pd[0]" -type "dataPolyComponent" Index_Data UV 0 ;
	setAttr ".hfd" -type "dataPolyComponent" Index_Data Face 0 ;
createNode materialInfo -n "alien:materialInfo2";
	rename -uid "AB144769-4D83-0E43-194F-CBBFE0E91A68";
createNode shadingEngine -n "alien:blinn1SG";
	rename -uid "C537E20F-41B5-C52C-58F9-FC8717F9A2AD";
	setAttr ".ihi" 0;
	setAttr -s 16 ".dsm";
	setAttr ".ro" yes;
	setAttr -s 5 ".gn";
createNode blinn -n "alien:blinn1";
	rename -uid "145AC79D-4AEB-425A-8342-E68C466DD2A3";
	setAttr ".c" -type "float3" 0.17299998 0.58649999 1 ;
	setAttr ".sc" -type "float3" 1 1 1 ;
	setAttr ".ec" 0.15445609390735626;
	setAttr ".sro" 1;
createNode lightLinker -s -n "lightLinker1";
	rename -uid "9B449487-9248-EAEE-90F3-25A37FEFED18";
	setAttr -s 9 ".lnk";
	setAttr -s 9 ".slnk";
select -ne :time1;
	setAttr ".o" 1;
	setAttr ".unw" 1;
select -ne :hardwareRenderingGlobals;
	setAttr ".otfna" -type "stringArray" 22 "NURBS Curves" "NURBS Surfaces" "Polygons" "Subdiv Surface" "Particles" "Particle Instance" "Fluids" "Strokes" "Image Planes" "UI" "Lights" "Cameras" "Locators" "Joints" "IK Handles" "Deformers" "Motion Trails" "Components" "Hair Systems" "Follicles" "Misc. UI" "Ornaments"  ;
	setAttr ".otfva" -type "Int32Array" 22 0 1 1 1 1 1
		 1 1 1 0 0 0 0 0 0 0 0 0
		 0 0 0 0 ;
	setAttr ".ta" 2;
	setAttr ".aoon" yes;
	setAttr ".msaa" yes;
select -ne :renderPartition;
	setAttr -s 9 ".st";
select -ne :renderGlobalsList1;
select -ne :defaultShaderList1;
	setAttr -s 11 ".s";
select -ne :postProcessList1;
	setAttr -s 2 ".p";
select -ne :defaultRenderUtilityList1;
select -ne :defaultRenderingList1;
select -ne :lightList1;
	setAttr -s 3 ".l";
select -ne :defaultTextureList1;
select -ne :initialShadingGroup;
	setAttr ".ro" yes;
select -ne :initialParticleSE;
	setAttr ".ro" yes;
select -ne :defaultRenderGlobals;
	setAttr ".outf" 51;
	setAttr ".imfkey" -type "string" "exr";
	setAttr ".ep" 1;
select -ne :defaultResolution;
	setAttr ".w" 1920;
	setAttr ".h" 1080;
	setAttr ".pa" 1;
	setAttr ".dar" 1.7777777910232544;
select -ne :defaultLightSet;
	setAttr -s 3 ".dsm";
select -ne :defaultColorMgtGlobals;
	setAttr ".cme" no;
select -ne :hardwareRenderGlobals;
	setAttr ".ctrs" 256;
	setAttr ".btrs" 512;
select -ne :ikSystem;
	setAttr -s 4 ".sol";
connectAttr "alien:blinn1SG.msg" "alien:materialInfo2.sg";
connectAttr "alien:blinn1.msg" "alien:materialInfo2.m";
connectAttr "alien:blinn1.oc" "alien:blinn1SG.ss";
connectAttr "alien01Shape.iog" "alien:blinn1SG.dsm" -na;
connectAttr "Gemstone_009Shape.iog" "alien:blinn1SG.dsm" -na;
connectAttr "Gemstone_008Shape.iog" "alien:blinn1SG.dsm" -na;
connectAttr "Gemstone_006Shape.iog" "alien:blinn1SG.dsm" -na;
connectAttr "Gemstone_004Shape.iog" "alien:blinn1SG.dsm" -na;
connectAttr "Gemstone_002Shape.iog" "alien:blinn1SG.dsm" -na;
connectAttr "Gemstone_001Shape.iog" "alien:blinn1SG.dsm" -na;
connectAttr "turret_baseShape.iog" "alien:blinn1SG.dsm" -na;
connectAttr "Alien_fighter_01Shape.iog" "alien:blinn1SG.dsm" -na;
connectAttr "turret_topShape.iog" "alien:blinn1SG.dsm" -na;
connectAttr "_mars:Imported_OBJ_ObjectShape.iog" "alien:blinn1SG.dsm" -na;
connectAttr "pCone6Shape.iog.og[6]" "alien:blinn1SG.dsm" -na;
connectAttr "pCone6Shape.ciog.cog[1]" "alien:blinn1SG.dsm" -na;
connectAttr "pPlane3Shape.iog.og[1]" "alien:blinn1SG.dsm" -na;
connectAttr "generatorShape.iog.og[1]" "alien:blinn1SG.dsm" -na;
connectAttr "pPlane5Shape.iog.og[1]" "alien:blinn1SG.dsm" -na;
connectAttr "groupId8.msg" "alien:blinn1SG.gn" -na;
connectAttr "groupId9.msg" "alien:blinn1SG.gn" -na;
connectAttr "groupId11.msg" "alien:blinn1SG.gn" -na;
connectAttr "groupId13.msg" "alien:blinn1SG.gn" -na;
connectAttr "groupId15.msg" "alien:blinn1SG.gn" -na;
relationship "link" ":lightLinker1" ":initialShadingGroup.message" ":defaultLightSet.message";
relationship "link" ":lightLinker1" ":initialParticleSE.message" ":defaultLightSet.message";
relationship "link" ":lightLinker1" "alien:blinn1SG.message" ":defaultLightSet.message";
relationship "shadowLink" ":lightLinker1" ":initialShadingGroup.message" ":defaultLightSet.message";
relationship "shadowLink" ":lightLinker1" ":initialParticleSE.message" ":defaultLightSet.message";
relationship "shadowLink" ":lightLinker1" "alien:blinn1SG.message" ":defaultLightSet.message";
connectAttr "alien:blinn1SG.pa" ":renderPartition.st" -na;
connectAttr "alien:blinn1.msg" ":defaultShaderList1.s" -na;
// End of Turret.ma
